%!PS-Adobe-2.0 EPSF-2.0
%%BoundingBox:  0 0 567 384
%%Title: /home/piters/work/MC/PHOTOS-MCTESTER/Results/Data/Acoplan/acoplanarity1.eps: c1_n4
%%Creator: ROOT Version 3.10/00
%%CreationDate: Fri Oct  1 09:41:39 2004
%%EndComments
%%BeginProlog
80 dict begin
/s {stroke} def /l {lineto} def /m {moveto} def /t {translate} def
/sw {stringwidth} def /r {rotate} def /rl {roll}  def /R {repeat} def
/d {rlineto} def /rm {rmoveto} def /gr {grestore} def /f {eofill} def
/c {setrgbcolor} def /lw {setlinewidth} def /sd {setdash} def
/cl {closepath} def /sf {scalefont setfont} def /black {0 setgray} def
/box {m dup 0 exch d exch 0 d 0 exch neg d cl} def
/NC{systemdict begin initclip end}def/C{NC box clip newpath}def
/bl {box s} def /bf {box f} def /Y { 0 exch d} def /X { 0 d} def 
/mp {newpath /y exch def /x exch def} def
/side {[w .77 mul w .23 mul] .385 w mul sd w 0 l currentpoint t -144 r} def
/mr {mp x y w2 0 360 arc} def /m24 {mr s} def /m20 {mr f} def
/mb {mp x y w2 add m w2 neg 0 d 0 w neg d w 0 d 0 w d cl} def
/mt {mp x y w2 add m w2 neg w neg d w 0 d cl} def
/m21 {mb f} def /m25 {mb s} def /m22 {mt f} def /m26{mt s} def
/m23 {mp x y w2 sub m w2 w d w neg 0 d cl f} def
/m27 {mp x y w2 add m w3 neg w2 neg d w3 w2 neg d w3 w2 d cl s} def
/m28 {mp x w2 sub y w2 sub w3 add m w3 0 d  0 w3 neg d w3 0 d 0 w3 d w3 0 d  0 w3 d w3 neg 0 d 0 w3 d w3 neg 0 d
 0 w3 neg d w3 neg 0 d cl s } def
/m29 {mp gsave x w2 sub y w2 add w3 sub m currentpoint t
 4 {side} repeat cl fill gr} def
/m30 {mp gsave x w2 sub y w2 add w3 sub m currentpoint t
 4 {side} repeat cl s gr} def
/m31 {mp x y w2 sub m 0 w d x w2 sub y m w 0 d x w2 sub y w2 add m w w neg d x w2 sub y w2
 sub m w w d s} def
/m2 {mp x y w2 sub m 0 w d x w2 sub y m w 0 d s} def
/m5 {mp x w2 sub y w2 sub m w w d x w2 sub y w2 add m w w neg d s} def
/reencdict 24 dict def /ReEncode {reencdict begin /nco&na exch def
/nfnam exch def /basefontname exch def /basefontdict basefontname findfont def
/newfont basefontdict maxlength dict def basefontdict {exch dup /FID ne
{dup /Encoding eq {exch dup length array copy newfont 3 1 roll put} {exch 
newfont 3 1 roll put} ifelse} {pop pop} ifelse } forall newfont
/FontName nfnam put nco&na aload pop nco&na length 2 idiv {newfont
/Encoding get 3 1 roll put} repeat nfnam newfont definefont pop end } def
/accvec [ 176 /agrave 181 /Agrave 190 /acircumflex 192 /Acircumflex
201 /adieresis 204 /Adieresis 209 /ccedilla 210 /Ccedilla 211 /eacute
212 /Eacute 213 /egrave 214 /Egrave 215 /ecircumflex 216 /Ecircumflex
217 /edieresis 218 /Edieresis 219 /icircumflex 220 /Icircumflex
221 /idieresis 222 /Idieresis 223 /ntilde 224 /Ntilde 226 /ocircumflex
228 /Ocircumflex 229 /odieresis 230 /Odieresis 231 /ucircumflex 236 /Ucircumflex
237 /udieresis 238 /Udieresis 239 /aring 242 /Aring 243 /ydieresis
244 /Ydieresis 246 /aacute 247 /Aacute 252 /ugrave 253 /Ugrave] def
/Times-Roman /Times-Roman accvec ReEncode
/Times-Italic /Times-Italic accvec ReEncode
/Times-Bold /Times-Bold accvec ReEncode
/Times-BoldItalic /Times-BoldItalic accvec ReEncode
/Helvetica /Helvetica accvec ReEncode
/Helvetica-Oblique /Helvetica-Oblique accvec ReEncode
/Helvetica-Bold /Helvetica-Bold accvec ReEncode
/Helvetica-BoldOblique /Helvetica-BoldOblique  accvec ReEncode
/Courier /Courier accvec ReEncode
/Courier-Oblique /Courier-Oblique accvec ReEncode
/Courier-Bold /Courier-Bold accvec ReEncode
/Courier-BoldOblique /Courier-BoldOblique accvec ReEncode
/oshow {gsave [] 0 sd true charpath stroke gr} def
/stwn { /fs exch def /fn exch def /text exch def fn findfont fs sf
 text sw pop xs add /xs exch def} def
/stwb { /fs exch def /fn exch def /nbas exch def /textf exch deftextf length /tlen exch def nbas tlen gt {/nbas tlendef} iffn findfont fs sf textf dup length nbas sub nbas getinterval sw
pop neg xs add /xs exch def} def
/accspe [ 65 /plusminus  66 /bar  67 /existential  68 /universal 
69 /exclam  70 /numbersign 71 /greater  72 /question  73 /integral 
74 /colon  75 /semicolon  76 /less  77 /bracketleft  78 /bracketright
79 /greaterequal 80 /braceleft 81 /braceright 82 /radical
83 /spade 84 /heart 85 /diamond 86 /club 87 /lessequal
88 /multiply 89 /percent 90 /infinity 48 /circlemultiply 49 /circleplus
50 /emptyset  51 /lozenge 52 /bullet 53 /arrowright 54 /arrowup
55 /arrowleft 56 /arrowdown 57 /arrowboth 48 /degree 44 /comma 43 /plus 45 /angle 42 /angleleft 47 /divide 61 /notequal 40 /equivalence 41 /second 97 /approxequal 98 /congruent 99 /perpendicular 100 /partialdiff 101 /florin 102 /intersection
 103 /union 104 /propersuperset 105 /reflexsuperset 106 /notsubset 107 /propersubset 108 /reflexsubset 109 /element 110 /notelement 111 /gradient 112 /logicaland 113 /logicalor 114 /arrowdblboth 115 /arrowdblleft 116 /arrowdblup 117 /arrowdblright
 118 /arrowdbldown 119 /ampersand 120 /omega1 121 /similar 122 /aleph ] def
/Symbol /Special accspe ReEncode
%%EndProlog
%%BeginSetup
newpath  gsave  .25 .25 scale 
%%EndSetup
 gsave  0 0 t black [] 0 sd 3 lw 0.999 0.999 0.999 c 2268 1538 0 0 bf 1 1 1 c 0 0 m 2 2 d 1534 Y 2264 X 2 2 d -2268 X -1538 Y f 0.999 0.999 0.999 c 0 0 m 2 2 d 2264 X 1534 Y 2 2 d -1538 Y -2268 X f black 0.999 0.999 0.999 c 1814 1230 227 154 bf 1 1 1
 c 227 154 m 1 1 d 1228 Y 1812 X 1 1 d -1814 X -1230 Y f 0.999 0.999 0.999 c 227 154 m 1 1 d 1812 X 1228 Y 1 1 d -1230 Y -1814 X f black 1814 1230 227 154 bl 0.999 0.999 0.999 c 1814 1230 227 154 bf 1 1 1 c 227 154 m 1 1 d 1228 Y 1812 X 1 1 d -1814 X
 -1230 Y f 0.999 0.999 0.999 c 227 154 m 1 1 d 1812 X 1228 Y 1 1 d -1230 Y -1814 X f black 1814 1230 227 154 bl 1 0 0 c 9 lw 228 154 m 54 X 1172 Y 55 X -18 Y 55 X 3 Y 55 X -2 Y 55 X 6 Y 55 X -44 Y 55 X 25 Y 55 X -5 Y 55 X -6 Y 55 X -36 Y 54 X -27 Y
 55 X -35 Y 55 X 11 Y 55 X -22 Y 55 X -13 Y 55 X 21 Y 55 X -47 Y 55 X -20 Y 55 X -5 Y 55 X 15 Y 55 X -35 Y 55 X 9 Y 55 X -13 Y 55 X -11 Y 55 X -11 Y 55 X 10 Y 55 X -8 Y 55 X -14 Y 110 X 13 Y 55 X -34 Y 55 X -510 Y 53 X s black 3 lw 227 154 m 1814 X s
 282 191 m -37 Y s 337 172 m -18 Y s 392 172 m -18 Y s 447 172 m -18 Y s 502 172 m -18 Y s 557 191 m -37 Y s 612 172 m -18 Y s 667 172 m -18 Y s 722 172 m -18 Y s 777 172 m -18 Y s 831 191 m -37 Y s 886 172 m -18 Y s 941 172 m -18 Y s 996 172 m -18 Y
 s 1051 172 m -18 Y s 1106 191 m -37 Y s 1161 172 m -18 Y s 1216 172 m -18 Y s 1271 172 m -18 Y s 1326 172 m -18 Y s 1381 191 m -37 Y s 1436 172 m -18 Y s 1491 172 m -18 Y s 1546 172 m -18 Y s 1601 172 m -18 Y s 1656 191 m -37 Y s 1711 172 m -18 Y s
 1766 172 m -18 Y s 1821 172 m -18 Y s 1876 172 m -18 Y s 1931 191 m -37 Y s 282 191 m -37 Y s 1931 191 m -37 Y s 1986 172 m -18 Y s
 gsave  264 98
 t 0 r 0 0 m /Helvetica-Bold findfont 58.6478 sf 0 0 m (0) show  gr 
 gsave  512 98
 t 0 r 0 0 m /Helvetica-Bold findfont 58.6478 sf 0 0 m (0.5) show  gr 
 gsave  818 98
 t 0 r 0 0 m /Helvetica-Bold findfont 58.6478 sf 0 0 m (1) show  gr 
 gsave  1062 98
 t 0 r 0 0 m /Helvetica-Bold findfont 58.6478 sf 0 0 m (1.5) show  gr 
 gsave  1362 98
 t 0 r 0 0 m /Helvetica-Bold findfont 58.6478 sf 0 0 m (2) show  gr 
 gsave  1613 98
 t 0 r 0 0 m /Helvetica-Bold findfont 58.6478 sf 0 0 m (2.5) show  gr 
 gsave  1913 98
 t 0 r 0 0 m /Helvetica-Bold findfont 58.6478 sf 0 0 m (3) show  gr  227 154 m 1230 Y s 281 154 m -54 X s 254 204 m -27 X s 254 254 m -27 X s 254 304 m -27 X s 281 354 m -54 X s 254 404 m -27 X s 254 454 m -27 X s 254 504 m -27 X s 281 555 m -54 X s
 254 605 m -27 X s 254 655 m -27 X s 254 705 m -27 X s 281 755 m -54 X s 254 805 m -27 X s 254 855 m -27 X s 254 905 m -27 X s 281 955 m -54 X s 254 1005 m -27 X s 254 1056 m -27 X s 254 1106 m -27 X s 281 1156 m -54 X s 254 1206 m -27 X s 254 1256 m
 -27 X s 254 1306 m -27 X s 281 1356 m -54 X s 281 1356 m -54 X s
 gsave  182 140
 t 0 r 0 0 m /Helvetica-Bold findfont 58.6478 sf 0 0 m (0) show  gr 
 gsave  134 339
 t 0 r 0 0 m /Helvetica-Bold findfont 58.6478 sf 0 0 m (0.2) show  gr 
 gsave  134 541
 t 0 r 0 0 m /Helvetica-Bold findfont 58.6478 sf 0 0 m (0.4) show  gr 
 gsave  134 740
 t 0 r 0 0 m /Helvetica-Bold findfont 58.6478 sf 0 0 m (0.6) show  gr 
 gsave  134 942
 t 0 r 0 0 m /Helvetica-Bold findfont 58.6478 sf 0 0 m (0.8) show  gr 
 gsave  189 1140
 t 0 r 0 0 m /Helvetica-Bold findfont 58.6478 sf 0 0 m (1) show  gr 
 gsave  134 1342
 t 0 r 0 0 m /Helvetica-Bold findfont 58.6478 sf 0 0 m (1.2) show  gr  0.95 0.95 0.95 c 478 82 23 1448 bf black 16 1520 m -78 Y 476 X 6 Y -469 X 72 Y f 23 1448 m 82 Y 478 X -82 Y -478 X cl s 1 1 1 c black
 gsave  62 1463
 t 0 r 0 0 m /Helvetica-Bold findfont 65.1643 sf 0 0 m (Acoplanarity) show  gr  0 1 0 c 9 lw 0 0 1 c 0 1 0 c 228 154 m 54 X 1128 Y 55 X -3 Y 55 X -21 Y 55 X 8 Y 55 X -15 Y 55 X 9 Y 55 X -20 Y 55 X 10 Y 55 X -56 Y 55 X 24 Y 54 X -13 Y 55 X 10 Y 55 X
 -28 Y 55 X -45 Y 55 X 27 Y 55 X -6 Y 55 X -21 Y 55 X 2 Y 55 X 10 Y 55 X -36 Y 55 X 15 Y 55 X -7 Y 55 X -34 Y 55 X 38 Y 55 X -41 Y 55 X 9 Y 55 X 18 Y 55 X -35 Y 55 X 27 Y 55 X 8 Y 55 X -15 Y 55 X -546 Y 53 X s black [12 12] 0 sd 6 lw 1 1 1 c 1 0 0 c
 black 228 154 m 54 X 1040 Y 55 X -13 Y 55 X 23 Y 55 X -10 Y 55 X 20 Y 55 X -49 Y 55 X 42 Y 55 X -13 Y 55 X 49 Y 55 X -59 Y 54 X -12 Y 55 X -42 Y 55 X 36 Y 55 X 24 Y 55 X -40 Y 55 X 27 Y 55 X -25 Y 55 X -24 Y 55 X -15 Y 55 X 53 Y 55 X -52 Y 55 X 16 Y
 55 X 22 Y 55 X -50 Y 55 X 30 Y 110 X -27 Y 55 X 21 Y 55 X -27 Y 55 X 5 Y 55 X -20 Y 55 X -8 Y 53 X s [] 0 sd 3 lw 0.95 0.95 0.95 c 697 208 1450 1271 bf 1 1 1 c 1450 1271 m 2 2 d 204 Y 693 X 2 2 d -697 X -208 Y f 0.665 0.665 0.665 c 1450 1271 m 2 2 d
 693 X 204 Y 2 2 d -208 Y -697 X f 1 0 0 c
 gsave  1486 1408
 t 0 r 0 0 m /Helvetica-Bold findfont 61.9061 sf 0 0 m (KKMC) show  gr  0 1 0 c
 gsave  1486 1333
 t 0 r 0 0 m /Helvetica-Bold findfont 61.9061 sf 0 0 m (KKMC+PHOTOS EXP) show  gr 
 gr  gr 
showpage
end
%%EOF
