%!PS-Adobe-2.0
%%Title: /home/piters/work/MC/PHOTOS-MCTESTER/PHOTOS-ORDERING/winhac-1.13-export/demo-W-PHOTOS-ORDERING/Q_harder.ps: qq
%%Creator: ROOT Version 3.10/00
%%CreationDate: Thu Oct  7 12:20:39 2004
%%EndComments
%%BeginProlog
/s {stroke} def /l {lineto} def /m {moveto} def /t {translate} def
/sw {stringwidth} def /r {rotate} def /rl {roll}  def /R {repeat} def
/d {rlineto} def /rm {rmoveto} def /gr {grestore} def /f {eofill} def
/c {setrgbcolor} def /lw {setlinewidth} def /sd {setdash} def
/cl {closepath} def /sf {scalefont setfont} def /black {0 setgray} def
/box {m dup 0 exch d exch 0 d 0 exch neg d cl} def
/NC{systemdict begin initclip end}def/C{NC box clip newpath}def
/bl {box s} def /bf {box f} def /Y { 0 exch d} def /X { 0 d} def 
/mp {newpath /y exch def /x exch def} def
/side {[w .77 mul w .23 mul] .385 w mul sd w 0 l currentpoint t -144 r} def
/mr {mp x y w2 0 360 arc} def /m24 {mr s} def /m20 {mr f} def
/mb {mp x y w2 add m w2 neg 0 d 0 w neg d w 0 d 0 w d cl} def
/mt {mp x y w2 add m w2 neg w neg d w 0 d cl} def
/m21 {mb f} def /m25 {mb s} def /m22 {mt f} def /m26{mt s} def
/m23 {mp x y w2 sub m w2 w d w neg 0 d cl f} def
/m27 {mp x y w2 add m w3 neg w2 neg d w3 w2 neg d w3 w2 d cl s} def
/m28 {mp x w2 sub y w2 sub w3 add m w3 0 d  0 w3 neg d w3 0 d 0 w3 d w3 0 d  0 w3 d w3 neg 0 d 0 w3 d w3 neg 0 d
 0 w3 neg d w3 neg 0 d cl s } def
/m29 {mp gsave x w2 sub y w2 add w3 sub m currentpoint t
 4 {side} repeat cl fill gr} def
/m30 {mp gsave x w2 sub y w2 add w3 sub m currentpoint t
 4 {side} repeat cl s gr} def
/m31 {mp x y w2 sub m 0 w d x w2 sub y m w 0 d x w2 sub y w2 add m w w neg d x w2 sub y w2
 sub m w w d s} def
/m2 {mp x y w2 sub m 0 w d x w2 sub y m w 0 d s} def
/m5 {mp x w2 sub y w2 sub m w w d x w2 sub y w2 add m w w neg d s} def
/reencdict 24 dict def /ReEncode {reencdict begin /nco&na exch def
/nfnam exch def /basefontname exch def /basefontdict basefontname findfont def
/newfont basefontdict maxlength dict def basefontdict {exch dup /FID ne
{dup /Encoding eq {exch dup length array copy newfont 3 1 roll put} {exch 
newfont 3 1 roll put} ifelse} {pop pop} ifelse } forall newfont
/FontName nfnam put nco&na aload pop nco&na length 2 idiv {newfont
/Encoding get 3 1 roll put} repeat nfnam newfont definefont pop end } def
/accvec [ 176 /agrave 181 /Agrave 190 /acircumflex 192 /Acircumflex
201 /adieresis 204 /Adieresis 209 /ccedilla 210 /Ccedilla 211 /eacute
212 /Eacute 213 /egrave 214 /Egrave 215 /ecircumflex 216 /Ecircumflex
217 /edieresis 218 /Edieresis 219 /icircumflex 220 /Icircumflex
221 /idieresis 222 /Idieresis 223 /ntilde 224 /Ntilde 226 /ocircumflex
228 /Ocircumflex 229 /odieresis 230 /Odieresis 231 /ucircumflex 236 /Ucircumflex
237 /udieresis 238 /Udieresis 239 /aring 242 /Aring 243 /ydieresis
244 /Ydieresis 246 /aacute 247 /Aacute 252 /ugrave 253 /Ugrave] def
/Times-Roman /Times-Roman accvec ReEncode
/Times-Italic /Times-Italic accvec ReEncode
/Times-Bold /Times-Bold accvec ReEncode
/Times-BoldItalic /Times-BoldItalic accvec ReEncode
/Helvetica /Helvetica accvec ReEncode
/Helvetica-Oblique /Helvetica-Oblique accvec ReEncode
/Helvetica-Bold /Helvetica-Bold accvec ReEncode
/Helvetica-BoldOblique /Helvetica-BoldOblique  accvec ReEncode
/Courier /Courier accvec ReEncode
/Courier-Oblique /Courier-Oblique accvec ReEncode
/Courier-Bold /Courier-Bold accvec ReEncode
/Courier-BoldOblique /Courier-BoldOblique accvec ReEncode
/oshow {gsave [] 0 sd true charpath stroke gr} def
/stwn { /fs exch def /fn exch def /text exch def fn findfont fs sf
 text sw pop xs add /xs exch def} def
/stwb { /fs exch def /fn exch def /nbas exch def /textf exch deftextf length /tlen exch def nbas tlen gt {/nbas tlendef} iffn findfont fs sf textf dup length nbas sub nbas getinterval sw
pop neg xs add /xs exch def} def
/accspe [ 65 /plusminus  66 /bar  67 /existential  68 /universal 
69 /exclam  70 /numbersign 71 /greater  72 /question  73 /integral 
74 /colon  75 /semicolon  76 /less  77 /bracketleft  78 /bracketright
79 /greaterequal 80 /braceleft 81 /braceright 82 /radical
83 /spade 84 /heart 85 /diamond 86 /club 87 /lessequal
88 /multiply 89 /percent 90 /infinity 48 /circlemultiply 49 /circleplus
50 /emptyset  51 /lozenge 52 /bullet 53 /arrowright 54 /arrowup
55 /arrowleft 56 /arrowdown 57 /arrowboth 48 /degree 44 /comma 43 /plus 45 /angle 42 /angleleft 47 /divide 61 /notequal 40 /equivalence 41 /second 97 /approxequal 98 /congruent 99 /perpendicular 100 /partialdiff 101 /florin 102 /intersection
 103 /union 104 /propersuperset 105 /reflexsuperset 106 /notsubset 107 /propersubset 108 /reflexsubset 109 /element 110 /notelement 111 /gradient 112 /logicaland 113 /logicalor 114 /arrowdblboth 115 /arrowdblleft 116 /arrowdblup 117 /arrowdblright
 118 /arrowdbldown 119 /ampersand 120 /omega1 121 /similar 122 /aleph ] def
/Symbol /Special accspe ReEncode
/Zone {/iy exch def /ix exch def  ix 1 sub  3144 mul  1 iy sub  2224
 mul t} def
%%EndProlog
%%BeginSetup
newpath  gsave  90 r 0 -594 t  28 20 t .25 .25 scale  gsave 
%%EndSetup
%%Page: number 1
 gsave  gsave 
 1 1 Zone
 gsave  0 0 t black [] 0 sd 3 lw 0.95 0.95 0.95 c 2905 2268 0 0 bf 1 1 1 c 0 0 m 2 2 d 2264 Y 2901 X 2 2 d -2905 X -2268 Y f 0.665 0.665 0.665 c 0 0 m 2 2 d 2901 X 2264 Y 2 2 d -2268 Y -2905 X f black 0.95 0.95 0.95 c 1395 1088 29 1157 bf 1 1 1 c 29
 1157 m 2 2 d 1084 Y 1391 X 2 2 d -1395 X -1088 Y f 0.665 0.665 0.665 c 29 1157 m 2 2 d 1391 X 1084 Y 2 2 d -1088 Y -1395 X f black 0.95 0.95 0.95 c 1115 871 169 1265 bf 1 1 1 c 169 1265 m 1 1 d 869 Y 1113 X 1 1 d -1115 X -871 Y f 0.665 0.665 0.665 c
 169 1265 m 1 1 d 1113 X 869 Y 1 1 d -871 Y -1115 X f black 1115 871 169 1265 bl 0.95 0.95 0.95 c 1115 871 169 1265 bf 1 1 1 c 169 1265 m 1 1 d 869 Y 1113 X 1 1 d -1115 X -871 Y f 0.665 0.665 0.665 c 169 1265 m 1 1 d 1113 X 869 Y 1 1 d -871 Y -1115 X
 f black 1115 871 169 1265 bl 1 1 1 c black 11 9 169 1265 bf 0.53 0.4 0.34 c 11 9 180 1265 bf 0.8 0.8 0.8 c 11 9 169 1274 bf 0 1 0 c 11 9 180 1274 bf 0.53 0.4 0.34 c 11 9 191 1274 bf 0.6 0.6 0.6 c 11 9 202 1274 bf 0.8 0.8 0.8 c 11 9 224 1274 bf 11 9
 180 1283 bf 0 1 0 c 11 9 191 1283 bf 0.52 0.76 0.64 c 11 9 202 1283 bf 0.8 0.8 0.8 c 11 9 213 1283 bf 11 9 224 1283 bf 1 0 1 c 11 8 202 1292 bf 0.53 0.4 0.34 c 11 8 213 1292 bf 0.3 0.3 0.3 c 11 8 224 1292 bf 0.6 0.6 0.6 c 12 8 235 1292 bf 0.8 0.8
 0.8 c 11 9 180 1300 bf 1 0 1 c 11 9 213 1300 bf 0.53 0.4 0.34 c 11 9 224 1300 bf 0.3 0.3 0.3 c 12 9 235 1300 bf 0.8 0.8 0.8 c 11 9 247 1300 bf 11 9 269 1300 bf 1 0 1 c 11 9 224 1309 bf 0.53 0.4 0.34 c 12 9 235 1309 bf 0.6 0.6 0.6 c 11 9 247 1309 bf
 0.8 0.8 0.8 c 11 9 258 1309 bf 11 9 280 1309 bf 1 0 0 c 12 8 235 1318 bf 0.52 0.76 0.64 c 11 8 247 1318 bf 0.3 0.3 0.3 c 11 8 258 1318 bf 0.8 0.8 0.8 c 11 8 269 1318 bf 11 8 336 1318 bf 1 0 0 c 11 9 247 1326 bf 0.53 0.4 0.34 c 11 9 258 1326 bf 0.3
 0.3 0.3 c 11 9 269 1326 bf 0.8 0.8 0.8 c 11 9 280 1326 bf 11 9 314 1326 bf 1 0 0 c 11 9 258 1335 bf 0.53 0.4 0.34 c 11 9 269 1335 bf 0.3 0.3 0.3 c 11 9 280 1335 bf 0.8 0.8 0.8 c 11 9 291 1335 bf 12 9 302 1335 bf 11 9 314 1335 bf 11 8 258 1344 bf 1 0
 0 c 11 8 269 1344 bf 0.53 0.4 0.34 c 11 8 280 1344 bf 0.3 0.3 0.3 c 11 8 291 1344 bf 0.8 0.8 0.8 c 12 8 302 1344 bf 11 8 314 1344 bf 0.6 0.6 0.6 c 11 9 269 1352 bf 1 0 0 c 11 9 280 1352 bf 0.53 0.4 0.34 c 11 9 291 1352 bf 0.3 0.3 0.3 c 12 9 302 1352
 bf 11 9 314 1352 bf 0.8 0.8 0.8 c 11 9 325 1352 bf 11 9 280 1361 bf 1 0 0 c 11 9 291 1361 bf 0.53 0.4 0.34 c 12 9 302 1361 bf 0.3 0.3 0.3 c 11 9 314 1361 bf 0.6 0.6 0.6 c 11 9 325 1361 bf 0.8 0.8 0.8 c 11 9 336 1361 bf 11 9 347 1361 bf 11 9 369 1361
 bf 11 9 258 1370 bf 0.6 0.6 0.6 c 11 9 291 1370 bf 1 0 0 c 12 9 302 1370 bf 0.53 0.4 0.34 c 11 9 314 1370 bf 0.8 0.78 0.67 c 11 9 325 1370 bf 0.6 0.6 0.6 c 11 9 336 1370 bf 0.8 0.8 0.8 c 11 9 347 1370 bf 11 9 358 1370 bf 11 9 369 1370 bf 12 9 380
 1370 bf 11 9 414 1370 bf 0.58 0.41 0.44 c 11 8 314 1379 bf 0.53 0.4 0.34 c 11 8 325 1379 bf 0.8 0.78 0.67 c 11 8 336 1379 bf 0.6 0.6 0.6 c 11 8 347 1379 bf 0.8 0.8 0.8 c 11 8 436 1379 bf 0.58 0.41 0.44 c 11 9 325 1387 bf 0.53 0.4 0.34 c 11 9 336
 1387 bf 0.3 0.3 0.3 c 11 9 347 1387 bf 0.6 0.6 0.6 c 11 9 358 1387 bf 0.8 0.8 0.8 c 11 9 369 1387 bf 12 9 380 1387 bf 11 9 425 1387 bf 11 9 325 1396 bf 0.58 0.41 0.44 c 11 9 336 1396 bf 0.53 0.4 0.34 c 11 9 347 1396 bf 0.8 0.78 0.67 c 11 9 358 1396
 bf 0.3 0.3 0.3 c 11 9 369 1396 bf 0.6 0.6 0.6 c 12 9 380 1396 bf 0.8 0.8 0.8 c 11 9 392 1396 bf 11 9 403 1396 bf 11 9 425 1396 bf 11 8 202 1405 bf 0.6 0.6 0.6 c 11 8 336 1405 bf 0.58 0.41 0.44 c 11 8 347 1405 bf 0.53 0.4 0.34 c 11 8 358 1405 bf 0.8
 0.78 0.67 c 11 8 369 1405 bf 0.6 0.6 0.6 c 12 8 380 1405 bf 0.8 0.8 0.8 c 11 8 392 1405 bf 11 8 414 1405 bf 11 8 436 1405 bf 0.58 0.41 0.44 c 11 9 358 1413 bf 0.53 0.4 0.34 c 11 9 369 1413 bf 0.3 0.3 0.3 c 12 9 380 1413 bf 11 9 392 1413 bf 0.8 0.8
 0.8 c 11 9 403 1413 bf 11 9 459 1413 bf 11 9 470 1413 bf 11 9 715 1413 bf 11 9 358 1422 bf 0.58 0.41 0.44 c 11 9 369 1422 bf 0.53 0.4 0.34 c 12 9 380 1422 bf 0.3 0.3 0.3 c 11 9 392 1422 bf 11 9 403 1422 bf 0.8 0.8 0.8 c 11 9 414 1422 bf 11 9 425
 1422 bf 11 9 436 1422 bf 12 9 447 1422 bf 11 9 369 1431 bf 0.58 0.41 0.44 c 12 9 380 1431 bf 0.53 0.4 0.34 c 11 9 392 1431 bf 0.8 0.78 0.67 c 11 9 403 1431 bf 0.8 0.8 0.8 c 11 9 414 1431 bf 11 9 425 1431 bf 11 9 436 1431 bf 12 9 447 1431 bf 11 9 481
 1431 bf 12 8 380 1440 bf 0.58 0.41 0.44 c 11 8 392 1440 bf 0.53 0.4 0.34 c 11 8 403 1440 bf 0.8 0.78 0.67 c 11 8 414 1440 bf 0.6 0.6 0.6 c 11 8 425 1440 bf 12 8 447 1440 bf 0.8 0.8 0.8 c 11 8 470 1440 bf 11 9 392 1448 bf 0.58 0.41 0.44 c 11 9 403
 1448 bf 0.53 0.4 0.34 c 11 9 414 1448 bf 0.8 0.78 0.67 c 11 9 425 1448 bf 0.8 0.8 0.8 c 11 9 436 1448 bf 12 9 447 1448 bf 11 9 459 1448 bf 11 9 470 1448 bf 11 9 537 1448 bf 0.3 0.3 0.3 c 11 9 403 1457 bf 0.58 0.41 0.44 c 11 9 414 1457 bf 0.53 0.4
 0.34 c 11 9 425 1457 bf 0.8 0.78 0.67 c 11 9 436 1457 bf 0.6 0.6 0.6 c 12 9 447 1457 bf 0.3 0.3 0.3 c 11 9 459 1457 bf 0.8 0.8 0.8 c 11 9 470 1457 bf 11 9 481 1457 bf 12 9 525 1457 bf 11 9 537 1457 bf 11 9 1150 1457 bf 0.6 0.6 0.6 c 11 8 414 1466 bf
 0.58 0.41 0.44 c 11 8 425 1466 bf 0.53 0.4 0.34 c 11 8 436 1466 bf 0.8 0.78 0.67 c 12 8 447 1466 bf 0.3 0.3 0.3 c 11 8 459 1466 bf 0.8 0.8 0.8 c 11 8 470 1466 bf 11 8 481 1466 bf 11 8 503 1466 bf 11 8 514 1466 bf 12 8 525 1466 bf 11 8 581 1466 bf 11
 8 648 1466 bf 0.6 0.6 0.6 c 11 9 425 1474 bf 0.58 0.41 0.44 c 11 9 436 1474 bf 0.53 0.4 0.34 c 12 9 447 1474 bf 0.3 0.3 0.3 c 11 9 459 1474 bf 11 9 470 1474 bf 0.8 0.8 0.8 c 11 9 481 1474 bf 12 9 525 1474 bf 11 9 581 1474 bf 0.3 0.3 0.3 c 11 9 436
 1483 bf 0.58 0.41 0.44 c 12 9 447 1483 bf 0.53 0.4 0.34 c 11 9 459 1483 bf 0.3 0.3 0.3 c 11 9 470 1483 bf 11 9 481 1483 bf 0.6 0.6 0.6 c 11 9 492 1483 bf 0.8 0.8 0.8 c 12 9 525 1483 bf 11 9 559 1483 bf 0.3 0.3 0.3 c 12 9 447 1492 bf 0.58 0.41 0.44 c
 11 9 459 1492 bf 0.53 0.4 0.34 c 11 9 470 1492 bf 0.8 0.78 0.67 c 11 9 481 1492 bf 0.8 0.8 0.8 c 11 9 492 1492 bf 12 9 525 1492 bf 11 9 682 1492 bf 11 9 760 1492 bf 0.6 0.6 0.6 c 11 8 459 1501 bf 0.67 0.56 0.58 c 11 8 470 1501 bf 0.53 0.4 0.34 c 11
 8 481 1501 bf 0.8 0.78 0.67 c 11 8 492 1501 bf 0.3 0.3 0.3 c 11 8 503 1501 bf 0.8 0.8 0.8 c 11 8 514 1501 bf 11 8 537 1501 bf 11 8 615 1501 bf 0.8 0.78 0.67 c 11 9 470 1509 bf 0.67 0.56 0.58 c 11 9 481 1509 bf 0.53 0.4 0.34 c 11 9 492 1509 bf 0.8
 0.78 0.67 c 11 9 503 1509 bf 0.8 0.8 0.8 c 11 9 514 1509 bf 0.6 0.6 0.6 c 12 9 525 1509 bf 0.8 0.8 0.8 c 11 9 537 1509 bf 11 9 548 1509 bf 11 9 570 1509 bf 11 9 581 1509 bf 0.6 0.6 0.6 c 11 9 481 1518 bf 0.67 0.56 0.58 c 11 9 492 1518 bf 0.53 0.4
 0.34 c 11 9 503 1518 bf 0.8 0.78 0.67 c 11 9 514 1518 bf 0.6 0.6 0.6 c 12 9 525 1518 bf 0.8 0.8 0.8 c 11 9 548 1518 bf 11 9 559 1518 bf 11 9 570 1518 bf 11 9 581 1518 bf 12 9 592 1518 bf 0.3 0.3 0.3 c 11 8 492 1527 bf 0.67 0.56 0.58 c 11 8 503 1527
 bf 0.53 0.4 0.34 c 11 8 514 1527 bf 0.8 0.78 0.67 c 12 8 525 1527 bf 0.3 0.3 0.3 c 11 8 537 1527 bf 0.8 0.8 0.8 c 11 8 548 1527 bf 0.6 0.6 0.6 c 11 8 581 1527 bf 0.8 0.8 0.8 c 12 8 882 1527 bf 0.3 0.3 0.3 c 11 9 503 1535 bf 0.67 0.56 0.58 c 11 9 514
 1535 bf 0.53 0.4 0.34 c 12 9 525 1535 bf 0.3 0.3 0.3 c 11 9 537 1535 bf 11 9 548 1535 bf 11 9 559 1535 bf 0.8 0.8 0.8 c 11 9 570 1535 bf 11 9 581 1535 bf 11 9 514 1544 bf 0.67 0.56 0.58 c 12 9 525 1544 bf 0.53 0.4 0.34 c 11 9 537 1544 bf 0.8 0.78
 0.67 c 11 9 548 1544 bf 0.3 0.3 0.3 c 11 9 559 1544 bf 0.6 0.6 0.6 c 11 9 570 1544 bf 0.8 0.8 0.8 c 11 9 581 1544 bf 11 9 604 1544 bf 11 9 637 1544 bf 12 9 659 1544 bf 0.3 0.3 0.3 c 12 8 525 1553 bf 0.67 0.56 0.58 c 11 8 537 1553 bf 0.53 0.4 0.34 c
 11 8 548 1553 bf 0.8 0.78 0.67 c 11 8 559 1553 bf 0.6 0.6 0.6 c 11 8 570 1553 bf 0.8 0.8 0.8 c 11 8 581 1553 bf 12 8 592 1553 bf 11 8 604 1553 bf 11 8 626 1553 bf 11 8 671 1553 bf 11 8 682 1553 bf 0.8 0.78 0.67 c 11 9 537 1561 bf 0.67 0.56 0.58 c 11
 9 548 1561 bf 0.53 0.4 0.34 c 11 9 559 1561 bf 0.8 0.78 0.67 c 11 9 570 1561 bf 0.8 0.8 0.8 c 11 9 581 1561 bf 12 9 592 1561 bf 11 9 604 1561 bf 11 9 615 1561 bf 11 9 626 1561 bf 11 9 637 1561 bf 12 9 659 1561 bf 11 9 682 1561 bf 0.8 0.78 0.67 c 11
 9 548 1570 bf 0.67 0.56 0.58 c 11 9 559 1570 bf 0.53 0.4 0.34 c 11 9 570 1570 bf 0.8 0.78 0.67 c 11 9 581 1570 bf 0.6 0.6 0.6 c 12 9 592 1570 bf 0.8 0.8 0.8 c 11 9 604 1570 bf 11 9 615 1570 bf 11 9 671 1570 bf 0.6 0.6 0.6 c 11 9 559 1579 bf 0.67
 0.56 0.58 c 11 9 570 1579 bf 0.53 0.4 0.34 c 11 9 581 1579 bf 0.8 0.78 0.67 c 12 9 592 1579 bf 0.6 0.6 0.6 c 11 9 604 1579 bf 0.8 0.8 0.8 c 11 9 615 1579 bf 11 9 637 1579 bf 0.6 0.6 0.6 c 11 9 648 1579 bf 0.3 0.3 0.3 c 11 8 570 1588 bf 0.67 0.56
 0.58 c 11 8 581 1588 bf 0.53 0.4 0.34 c 12 8 592 1588 bf 0.8 0.78 0.67 c 11 8 604 1588 bf 0.6 0.6 0.6 c 11 8 615 1588 bf 0.8 0.8 0.8 c 11 8 626 1588 bf 11 8 637 1588 bf 11 8 671 1588 bf 11 8 726 1588 bf 0.8 0.78 0.67 c 11 9 581 1596 bf 0.67 0.56
 0.58 c 12 9 592 1596 bf 0.53 0.4 0.34 c 11 9 604 1596 bf 0.8 0.78 0.67 c 11 9 615 1596 bf 0.6 0.6 0.6 c 11 9 626 1596 bf 0.8 0.8 0.8 c 11 9 637 1596 bf 11 9 648 1596 bf 0.6 0.6 0.6 c 11 9 704 1596 bf 0.8 0.8 0.8 c 11 9 782 1596 bf 0.8 0.78 0.67 c 12
 9 592 1605 bf 0.67 0.56 0.58 c 11 9 604 1605 bf 0.53 0.4 0.34 c 11 9 615 1605 bf 0.3 0.3 0.3 c 11 9 626 1605 bf 11 9 637 1605 bf 0.8 0.8 0.8 c 11 9 648 1605 bf 11 9 671 1605 bf 11 9 715 1605 bf 11 9 905 1605 bf 0.3 0.3 0.3 c 11 8 604 1614 bf 0.67
 0.56 0.58 c 11 8 615 1614 bf 0.53 0.4 0.34 c 11 8 626 1614 bf 0.6 0.6 0.6 c 11 8 637 1614 bf 0.8 0.8 0.8 c 11 8 648 1614 bf 0.6 0.6 0.6 c 12 8 659 1614 bf 0.8 0.8 0.8 c 11 8 682 1614 bf 11 8 693 1614 bf 11 8 871 1614 bf 0.3 0.3 0.3 c 11 9 615 1622
 bf 0.67 0.56 0.58 c 11 9 626 1622 bf 0.53 0.4 0.34 c 11 9 637 1622 bf 0.6 0.6 0.6 c 11 9 648 1622 bf 0.3 0.3 0.3 c 12 9 659 1622 bf 0.8 0.8 0.8 c 11 9 682 1622 bf 0.8 0.78 0.67 c 11 9 626 1631 bf 0.67 0.56 0.58 c 11 9 637 1631 bf 0.72 0.64 0.61 c 11
 9 648 1631 bf 0.6 0.6 0.6 c 12 9 659 1631 bf 0.3 0.3 0.3 c 11 9 671 1631 bf 0.8 0.8 0.8 c 11 9 682 1631 bf 0.6 0.6 0.6 c 11 9 715 1631 bf 0.8 0.8 0.8 c 11 9 726 1631 bf 11 9 827 1631 bf 0.3 0.3 0.3 c 11 9 637 1640 bf 0.67 0.56 0.58 c 11 9 648 1640
 bf 0.53 0.4 0.34 c 12 9 659 1640 bf 0.3 0.3 0.3 c 11 9 671 1640 bf 11 9 682 1640 bf 0.8 0.8 0.8 c 11 9 693 1640 bf 11 9 715 1640 bf 11 9 749 1640 bf 11 9 838 1640 bf 0.8 0.78 0.67 c 11 8 648 1649 bf 0.67 0.56 0.58 c 12 8 659 1649 bf 0.72 0.64 0.61 c
 11 8 671 1649 bf 0.8 0.78 0.67 c 11 8 682 1649 bf 0.3 0.3 0.3 c 11 8 693 1649 bf 11 8 704 1649 bf 0.8 0.8 0.8 c 11 8 715 1649 bf 11 8 771 1649 bf 0.8 0.78 0.67 c 12 9 659 1657 bf 0.67 0.56 0.58 c 11 9 671 1657 bf 0.53 0.4 0.34 c 11 9 682 1657 bf 0.3
 0.3 0.3 c 11 9 693 1657 bf 0.8 0.8 0.8 c 11 9 704 1657 bf 11 9 715 1657 bf 11 9 726 1657 bf 12 9 737 1657 bf 11 9 749 1657 bf 11 9 771 1657 bf 0.8 0.78 0.67 c 11 9 671 1666 bf 0.67 0.56 0.58 c 11 9 682 1666 bf 0.72 0.64 0.61 c 11 9 693 1666 bf 0.3
 0.3 0.3 c 11 9 704 1666 bf 11 9 715 1666 bf 0.8 0.8 0.8 c 11 9 726 1666 bf 12 9 737 1666 bf 11 9 760 1666 bf 11 9 849 1666 bf 0.8 0.78 0.67 c 11 8 682 1675 bf 0.67 0.56 0.58 c 11 8 693 1675 bf 0.72 0.64 0.61 c 11 8 704 1675 bf 0.8 0.78 0.67 c 11 8
 715 1675 bf 0.8 0.8 0.8 c 11 8 726 1675 bf 0.6 0.6 0.6 c 12 8 737 1675 bf 0.8 0.8 0.8 c 11 8 760 1675 bf 11 8 793 1675 bf 0.8 0.78 0.67 c 11 9 693 1683 bf 0.74 0.62 0.51 c 11 9 704 1683 bf 0.72 0.64 0.61 c 11 9 715 1683 bf 0.8 0.78 0.67 c 11 9 726
 1683 bf 0.8 0.8 0.8 c 12 9 737 1683 bf 11 9 749 1683 bf 11 9 760 1683 bf 11 9 771 1683 bf 11 9 782 1683 bf 11 9 849 1683 bf 0.8 0.78 0.67 c 11 9 704 1692 bf 0.74 0.62 0.51 c 11 9 715 1692 bf 0.72 0.64 0.61 c 11 9 726 1692 bf 0.8 0.78 0.67 c 12 9 737
 1692 bf 0.3 0.3 0.3 c 11 9 749 1692 bf 0.8 0.8 0.8 c 11 9 760 1692 bf 11 9 771 1692 bf 11 9 782 1692 bf 11 9 793 1692 bf 12 9 804 1692 bf 11 9 838 1692 bf 11 9 871 1692 bf 0.8 0.78 0.67 c 11 8 715 1701 bf 0.74 0.62 0.51 c 11 8 726 1701 bf 0.53 0.4
 0.34 c 12 8 737 1701 bf 0.3 0.3 0.3 c 11 8 749 1701 bf 0.8 0.8 0.8 c 11 8 760 1701 bf 11 8 771 1701 bf 11 8 782 1701 bf 11 8 793 1701 bf 12 8 804 1701 bf 11 8 827 1701 bf 11 8 849 1701 bf 0.73 0.71 0.64 c 11 9 726 1709 bf 0.74 0.62 0.51 c 12 9 737
 1709 bf 0.72 0.64 0.61 c 11 9 749 1709 bf 0.3 0.3 0.3 c 11 9 760 1709 bf 11 9 771 1709 bf 0.8 0.8 0.8 c 11 9 782 1709 bf 11 9 793 1709 bf 12 9 804 1709 bf 11 9 816 1709 bf 11 9 871 1709 bf 0.73 0.71 0.64 c 12 9 737 1718 bf 0.74 0.62 0.51 c 11 9 749
 1718 bf 0.72 0.64 0.61 c 11 9 760 1718 bf 0.3 0.3 0.3 c 11 9 771 1718 bf 0.6 0.6 0.6 c 11 9 782 1718 bf 0.8 0.8 0.8 c 11 9 793 1718 bf 12 9 804 1718 bf 11 9 838 1718 bf 11 9 871 1718 bf 12 9 737 1727 bf 0.8 0.78 0.67 c 11 9 749 1727 bf 0.74 0.62
 0.51 c 11 9 760 1727 bf 0.72 0.64 0.61 c 11 9 771 1727 bf 0.3 0.3 0.3 c 11 9 782 1727 bf 0.8 0.8 0.8 c 11 9 793 1727 bf 12 9 804 1727 bf 0.6 0.6 0.6 c 11 9 816 1727 bf 0.8 0.8 0.8 c 11 9 827 1727 bf 11 9 849 1727 bf 11 9 871 1727 bf 0.8 0.78 0.67 c
 11 8 760 1736 bf 0.74 0.62 0.51 c 11 8 771 1736 bf 0.72 0.64 0.61 c 11 8 782 1736 bf 0.8 0.78 0.67 c 11 8 793 1736 bf 0.3 0.3 0.3 c 12 8 804 1736 bf 11 8 816 1736 bf 0.8 0.8 0.8 c 11 8 838 1736 bf 11 8 849 1736 bf 11 8 871 1736 bf 0.8 0.78 0.67 c 11
 9 771 1744 bf 0.74 0.62 0.51 c 11 9 782 1744 bf 0.72 0.64 0.61 c 11 9 793 1744 bf 0.3 0.3 0.3 c 12 9 804 1744 bf 0.6 0.6 0.6 c 11 9 816 1744 bf 11 9 827 1744 bf 0.8 0.8 0.8 c 11 9 838 1744 bf 11 9 849 1744 bf 12 9 882 1744 bf 11 9 771 1753 bf 0.8
 0.78 0.67 c 11 9 782 1753 bf 0.74 0.62 0.51 c 11 9 793 1753 bf 0.72 0.64 0.61 c 12 9 804 1753 bf 0.6 0.6 0.6 c 11 9 816 1753 bf 11 9 827 1753 bf 11 9 838 1753 bf 0.8 0.8 0.8 c 11 9 849 1753 bf 12 9 882 1753 bf 11 9 905 1753 bf 11 9 1195 1753 bf 0.73
 0.71 0.64 c 11 8 793 1762 bf 0.74 0.62 0.51 c 12 8 804 1762 bf 0.72 0.64 0.61 c 11 8 816 1762 bf 0.8 0.78 0.67 c 11 8 827 1762 bf 0.6 0.6 0.6 c 11 8 838 1762 bf 0.8 0.8 0.8 c 11 8 860 1762 bf 12 8 882 1762 bf 11 8 894 1762 bf 11 8 905 1762 bf 0.73
 0.71 0.64 c 12 9 804 1770 bf 0.74 0.62 0.51 c 11 9 816 1770 bf 0.72 0.64 0.61 c 11 9 827 1770 bf 0.8 0.78 0.67 c 11 9 838 1770 bf 0.6 0.6 0.6 c 11 9 849 1770 bf 0.8 0.8 0.8 c 11 9 860 1770 bf 0.6 0.6 0.6 c 12 9 882 1770 bf 0.8 0.8 0.8 c 11 9 1139
 1770 bf 0.8 0.78 0.67 c 11 9 816 1779 bf 0.74 0.62 0.51 c 11 9 827 1779 bf 0.72 0.64 0.61 c 11 9 838 1779 bf 0.3 0.3 0.3 c 11 9 849 1779 bf 11 9 860 1779 bf 0.8 0.8 0.8 c 11 9 871 1779 bf 12 9 882 1779 bf 11 9 905 1779 bf 11 9 927 1779 bf 11 9 994
 1779 bf 11 9 1039 1779 bf 11 9 816 1788 bf 0.8 0.78 0.67 c 11 9 827 1788 bf 0.74 0.62 0.51 c 11 9 838 1788 bf 0.72 0.64 0.61 c 11 9 849 1788 bf 0.8 0.78 0.67 c 11 9 860 1788 bf 0.8 0.8 0.8 c 11 9 871 1788 bf 0.6 0.6 0.6 c 12 9 882 1788 bf 0.8 0.8
 0.8 c 11 9 894 1788 bf 11 9 905 1788 bf 11 9 916 1788 bf 0.8 0.78 0.67 c 11 8 838 1797 bf 0.74 0.62 0.51 c 11 8 849 1797 bf 0.72 0.64 0.61 c 11 8 860 1797 bf 0.8 0.78 0.67 c 11 8 871 1797 bf 0.8 0.8 0.8 c 12 8 882 1797 bf 0.6 0.6 0.6 c 11 8 894 1797
 bf 0.8 0.8 0.8 c 11 8 916 1797 bf 12 8 949 1797 bf 11 9 838 1805 bf 0.8 0.78 0.67 c 11 9 849 1805 bf 0.74 0.62 0.51 c 11 9 860 1805 bf 0.72 0.64 0.61 c 11 9 871 1805 bf 0.8 0.78 0.67 c 12 9 882 1805 bf 0.6 0.6 0.6 c 11 9 894 1805 bf 0.8 0.8 0.8 c 11
 9 916 1805 bf 11 9 1028 1805 bf 11 9 849 1814 bf 0.73 0.71 0.64 c 11 9 860 1814 bf 0.74 0.62 0.51 c 11 9 871 1814 bf 0.72 0.64 0.61 c 12 9 882 1814 bf 0.3 0.3 0.3 c 11 9 894 1814 bf 11 9 905 1814 bf 0.8 0.8 0.8 c 11 9 916 1814 bf 11 9 927 1814 bf 11
 9 972 1814 bf 0.73 0.71 0.64 c 11 8 871 1823 bf 0.74 0.62 0.51 c 12 8 882 1823 bf 0.72 0.64 0.61 c 11 8 894 1823 bf 0.8 0.78 0.67 c 11 8 905 1823 bf 0.6 0.6 0.6 c 11 8 916 1823 bf 11 8 927 1823 bf 0.8 0.8 0.8 c 12 8 949 1823 bf 11 8 972 1823 bf 11 8
 1083 1823 bf 0.73 0.71 0.64 c 12 9 882 1831 bf 0.74 0.62 0.51 c 11 9 894 1831 bf 0.73 0.71 0.64 c 11 9 905 1831 bf 0.6 0.6 0.6 c 11 9 916 1831 bf 0.8 0.8 0.8 c 11 9 927 1831 bf 11 9 938 1831 bf 0.6 0.6 0.6 c 12 9 949 1831 bf 0.8 0.8 0.8 c 11 9 961
 1831 bf 11 9 972 1831 bf 11 9 983 1831 bf 11 9 1072 1831 bf 0.8 0.78 0.67 c 11 9 894 1840 bf 0.74 0.62 0.51 c 11 9 905 1840 bf 0.72 0.64 0.61 c 11 9 916 1840 bf 0.3 0.3 0.3 c 11 9 927 1840 bf 11 9 938 1840 bf 0.8 0.8 0.8 c 12 9 949 1840 bf 0.6 0.6
 0.6 c 11 9 961 1840 bf 0.8 0.8 0.8 c 12 9 1016 1840 bf 0.8 0.78 0.67 c 11 9 905 1849 bf 0.74 0.62 0.51 c 11 9 916 1849 bf 0.72 0.64 0.61 c 11 9 927 1849 bf 0.8 0.78 0.67 c 11 9 938 1849 bf 0.8 0.8 0.8 c 12 9 949 1849 bf 11 9 961 1849 bf 11 9 983
 1849 bf 11 8 905 1858 bf 0.73 0.71 0.64 c 11 8 916 1858 bf 0.74 0.62 0.51 c 11 8 927 1858 bf 0.72 0.64 0.61 c 11 8 938 1858 bf 0.6 0.6 0.6 c 12 8 949 1858 bf 11 8 961 1858 bf 0.8 0.8 0.8 c 11 8 972 1858 bf 11 8 994 1858 bf 11 8 1005 1858 bf 11 8
 1050 1858 bf 11 9 916 1866 bf 0.8 0.78 0.67 c 11 9 927 1866 bf 0.74 0.62 0.51 c 11 9 938 1866 bf 0.72 0.64 0.61 c 12 9 949 1866 bf 0.3 0.3 0.3 c 11 9 961 1866 bf 0.8 0.8 0.8 c 11 9 972 1866 bf 11 9 983 1866 bf 11 9 1005 1866 bf 12 9 1016 1866 bf 11
 9 927 1875 bf 0.73 0.71 0.64 c 11 9 938 1875 bf 0.83 0.81 0.53 c 12 9 949 1875 bf 0.72 0.64 0.61 c 11 9 961 1875 bf 0.8 0.78 0.67 c 11 9 972 1875 bf 0.8 0.8 0.8 c 11 9 983 1875 bf 11 9 994 1875 bf 12 9 1094 1875 bf 0.8 0.78 0.67 c 12 8 949 1884 bf
 0.83 0.81 0.53 c 11 8 961 1884 bf 0.72 0.64 0.61 c 11 8 972 1884 bf 0.3 0.3 0.3 c 11 8 983 1884 bf 0.6 0.6 0.6 c 11 8 994 1884 bf 0.8 0.8 0.8 c 11 8 1005 1884 bf 12 8 1016 1884 bf 11 8 1028 1884 bf 11 8 1050 1884 bf 11 8 1072 1884 bf 0.8 0.78 0.67 c
 11 9 961 1892 bf 0.83 0.81 0.53 c 11 9 972 1892 bf 0.72 0.64 0.61 c 11 9 983 1892 bf 0.6 0.6 0.6 c 11 9 994 1892 bf 11 9 1005 1892 bf 0.8 0.8 0.8 c 12 9 1016 1892 bf 11 9 1028 1892 bf 12 9 1094 1892 bf 11 9 1117 1892 bf 11 9 961 1901 bf 0.8 0.78
 0.67 c 11 9 972 1901 bf 0.83 0.81 0.53 c 11 9 983 1901 bf 0.72 0.64 0.61 c 11 9 994 1901 bf 0.8 0.8 0.8 c 11 9 1005 1901 bf 0.6 0.6 0.6 c 12 9 1016 1901 bf 0.8 0.8 0.8 c 11 9 1028 1901 bf 11 9 1106 1901 bf 11 8 961 1910 bf 11 8 972 1910 bf 0.73 0.71
 0.64 c 11 8 983 1910 bf 0.83 0.81 0.53 c 11 8 994 1910 bf 0.73 0.71 0.64 c 11 8 1005 1910 bf 0.3 0.3 0.3 c 12 8 1016 1910 bf 0.8 0.8 0.8 c 11 8 1028 1910 bf 11 8 1050 1910 bf 11 8 1072 1910 bf 11 9 972 1918 bf 11 9 983 1918 bf 0.73 0.71 0.64 c 11 9
 994 1918 bf 0.83 0.81 0.53 c 11 9 1005 1918 bf 0.73 0.71 0.64 c 12 9 1016 1918 bf 0.3 0.3 0.3 c 11 9 1028 1918 bf 0.8 0.8 0.8 c 11 9 1072 1918 bf 11 9 1083 1918 bf 11 9 1106 1918 bf 0.73 0.71 0.64 c 11 9 1005 1927 bf 0.83 0.81 0.53 c 12 9 1016 1927
 bf 0.73 0.71 0.64 c 11 9 1028 1927 bf 0.8 0.8 0.8 c 11 9 1039 1927 bf 11 9 1061 1927 bf 11 9 1072 1927 bf 11 9 1083 1927 bf 11 9 1139 1927 bf 11 9 1005 1936 bf 0.8 0.78 0.67 c 12 9 1016 1936 bf 0.83 0.81 0.53 c 11 9 1028 1936 bf 0.73 0.71 0.64 c 11
 9 1039 1936 bf 0.6 0.6 0.6 c 11 9 1050 1936 bf 0.8 0.8 0.8 c 11 9 1061 1936 bf 11 9 1083 1936 bf 12 8 1016 1945 bf 0.8 0.78 0.67 c 11 8 1028 1945 bf 0.83 0.81 0.53 c 11 8 1039 1945 bf 0.72 0.64 0.61 c 11 8 1050 1945 bf 0.6 0.6 0.6 c 11 8 1061 1945
 bf 0.8 0.8 0.8 c 11 8 1128 1945 bf 0.6 0.6 0.6 c 11 9 1028 1953 bf 0.8 0.78 0.67 c 11 9 1039 1953 bf 0.83 0.81 0.53 c 11 9 1050 1953 bf 0.73 0.71 0.64 c 11 9 1061 1953 bf 0.3 0.3 0.3 c 11 9 1072 1953 bf 0.6 0.6 0.6 c 11 9 1083 1953 bf 0.8 0.8 0.8 c
 12 9 1094 1953 bf 11 9 1128 1953 bf 11 9 1139 1953 bf 0.6 0.6 0.6 c 11 9 1039 1962 bf 0.73 0.71 0.64 c 11 9 1050 1962 bf 0.83 0.81 0.53 c 11 9 1061 1962 bf 0.73 0.71 0.64 c 11 9 1072 1962 bf 0.6 0.6 0.6 c 11 9 1083 1962 bf 0.8 0.8 0.8 c 12 9 1094
 1962 bf 11 9 1128 1962 bf 11 8 1028 1971 bf 11 8 1039 1971 bf 11 8 1050 1971 bf 0.73 0.71 0.64 c 11 8 1061 1971 bf 0.83 0.81 0.53 c 11 8 1072 1971 bf 0.73 0.71 0.64 c 11 8 1083 1971 bf 0.3 0.3 0.3 c 12 8 1094 1971 bf 0.6 0.6 0.6 c 11 8 1106 1971 bf
 0.8 0.8 0.8 c 11 8 1117 1971 bf 0.73 0.71 0.64 c 11 9 1072 1979 bf 0.83 0.81 0.53 c 11 9 1083 1979 bf 0.73 0.71 0.64 c 12 9 1094 1979 bf 0.3 0.3 0.3 c 11 9 1106 1979 bf 0.6 0.6 0.6 c 11 9 1117 1979 bf 0.8 0.8 0.8 c 11 9 1072 1988 bf 0.8 0.78 0.67 c
 11 9 1083 1988 bf 0.83 0.81 0.53 c 12 9 1094 1988 bf 0.73 0.71 0.64 c 11 9 1106 1988 bf 0.3 0.3 0.3 c 11 9 1117 1988 bf 0.6 0.6 0.6 c 11 9 1128 1988 bf 0.8 0.8 0.8 c 11 9 1139 1988 bf 11 9 1083 1997 bf 0.73 0.71 0.64 c 12 9 1094 1997 bf 0.83 0.81
 0.53 c 11 9 1106 1997 bf 0.8 0.78 0.67 c 11 9 1117 1997 bf 0.3 0.3 0.3 c 11 9 1128 1997 bf 0.8 0.8 0.8 c 11 9 1139 1997 bf 12 9 1161 1997 bf 11 8 1083 2006 bf 0.6 0.6 0.6 c 12 8 1094 2006 bf 0.8 0.78 0.67 c 11 8 1106 2006 bf 0.83 0.81 0.53 c 11 8
 1117 2006 bf 0.73 0.71 0.64 c 11 8 1128 2006 bf 0.6 0.6 0.6 c 11 8 1139 2006 bf 0.8 0.8 0.8 c 11 8 1150 2006 bf 11 8 1217 2006 bf 11 9 1106 2014 bf 0.8 0.78 0.67 c 11 9 1117 2014 bf 0.5 0.5 0.61 c 11 9 1128 2014 bf 0.73 0.71 0.64 c 11 9 1139 2014 bf
 0.8 0.8 0.8 c 11 9 1150 2014 bf 12 9 1161 2014 bf 11 9 1173 2014 bf 0.8 0.78 0.67 c 11 9 1128 2023 bf 0.5 0.5 0.61 c 11 9 1139 2023 bf 0.8 0.78 0.67 c 11 9 1150 2023 bf 0.6 0.6 0.6 c 12 9 1161 2023 bf 0.8 0.8 0.8 c 11 9 1184 2023 bf 11 9 1217 2023
 bf 11 8 1117 2032 bf 0.6 0.6 0.6 c 11 8 1128 2032 bf 0.8 0.78 0.67 c 11 8 1139 2032 bf 0.5 0.5 0.61 c 11 8 1150 2032 bf 0.8 0.78 0.67 c 12 8 1161 2032 bf 0.8 0.8 0.8 c 11 8 1173 2032 bf 0.6 0.6 0.6 c 11 8 1184 2032 bf 0.8 0.8 0.8 c 11 9 1128 2040 bf
 11 9 1139 2040 bf 0.8 0.78 0.67 c 11 9 1150 2040 bf 0.5 0.5 0.61 c 12 9 1161 2040 bf 0.73 0.71 0.64 c 11 9 1173 2040 bf 0.8 0.8 0.8 c 11 9 1184 2040 bf 11 9 1206 2040 bf 12 9 1239 2040 bf 11 9 1150 2049 bf 0.8 0.78 0.67 c 12 9 1161 2049 bf 0.5 0.5
 0.61 c 11 9 1173 2049 bf 0.8 0.78 0.67 c 11 9 1184 2049 bf 0.8 0.8 0.8 c 11 9 1195 2049 bf 11 9 1206 2049 bf 11 9 1228 2049 bf 12 9 1239 2049 bf 11 9 1150 2058 bf 0.3 0.3 0.3 c 11 9 1173 2058 bf 0.5 0.5 0.61 c 11 9 1184 2058 bf 0.8 0.78 0.67 c 11 9
 1195 2058 bf 0.6 0.6 0.6 c 11 9 1206 2058 bf 0.8 0.8 0.8 c 12 9 1239 2058 bf 11 8 1173 2067 bf 0.8 0.78 0.67 c 11 8 1184 2067 bf 0.5 0.5 0.61 c 11 8 1195 2067 bf 0.8 0.78 0.67 c 11 8 1206 2067 bf 0.8 0.8 0.8 c 11 8 1217 2067 bf 11 8 1228 2067 bf 12
 8 1239 2067 bf 11 9 1184 2075 bf 0.8 0.78 0.67 c 11 9 1195 2075 bf 0.5 0.5 0.61 c 11 9 1206 2075 bf 0.3 0.3 0.3 c 11 9 1217 2075 bf 0.8 0.8 0.8 c 12 9 1239 2075 bf 11 9 1251 2075 bf 0.8 0.78 0.67 c 11 9 1206 2084 bf 0.43 0.48 0.52 c 11 9 1217 2084
 bf 0.3 0.3 0.3 c 11 9 1228 2084 bf 0.8 0.8 0.8 c 12 9 1239 2084 bf 11 9 1251 2084 bf 11 8 1195 2093 bf 11 8 1206 2093 bf 0.8 0.78 0.67 c 11 8 1217 2093 bf 0.43 0.48 0.52 c 11 8 1228 2093 bf 0.3 0.3 0.3 c 12 8 1239 2093 bf 0.6 0.6 0.6 c 11 8 1251
 2093 bf 0.8 0.8 0.8 c 11 9 1195 2101 bf 0.3 0.3 0.3 c 11 9 1228 2101 bf 0.43 0.48 0.52 c 12 9 1239 2101 bf 0.3 0.3 0.3 c 11 9 1251 2101 bf 0.8 0.8 0.8 c 11 9 1228 2110 bf 0.3 0.3 0.3 c 12 9 1239 2110 bf 0.43 0.48 0.52 c 11 9 1251 2110 bf 0.8 0.8 0.8
 c 11 9 1262 2110 bf 12 8 1239 2119 bf 0.3 0.3 0.3 c 11 8 1251 2119 bf 0.48 0.56 0.6 c 11 8 1262 2119 bf 0.8 0.8 0.8 c 11 8 1273 2119 bf 11 9 1262 2127 bf 0.51 0.62 0.55 c 11 9 1273 2127 bf 1 1 1 c black 169 1265 m 1115 X s
 gsave  1198 1175
 t 0 r 0 0 m /Helvetica-Bold findfont 27.3265 sf 0 0 m (before) show  gr 
 gsave  1166 1189
 t 0 r 0 0 m /Helvetica-Bold findfont 40.9897 sf 0 0 m (Q) show  gr  169 1292 m -27 Y s 191 1278 m -13 Y s 213 1278 m -13 Y s 235 1278 m -13 Y s 258 1278 m -13 Y s 280 1292 m -27 Y s 302 1278 m -13 Y s 325 1278 m -13 Y s 347 1278 m -13 Y s 369 1278 m
 -13 Y s 392 1292 m -27 Y s 414 1278 m -13 Y s 436 1278 m -13 Y s 459 1278 m -13 Y s 481 1278 m -13 Y s 503 1292 m -27 Y s 525 1278 m -13 Y s 548 1278 m -13 Y s 570 1278 m -13 Y s 592 1278 m -13 Y s 615 1292 m -27 Y s 637 1278 m -13 Y s 659 1278 m
 -13 Y s 682 1278 m -13 Y s 704 1278 m -13 Y s 726 1292 m -27 Y s 749 1278 m -13 Y s 771 1278 m -13 Y s 793 1278 m -13 Y s 816 1278 m -13 Y s 838 1292 m -27 Y s 860 1278 m -13 Y s 882 1278 m -13 Y s 905 1278 m -13 Y s 927 1278 m -13 Y s 949 1292 m
 -27 Y s 972 1278 m -13 Y s 994 1278 m -13 Y s 1016 1278 m -13 Y s 1039 1278 m -13 Y s 1061 1292 m -27 Y s 1083 1278 m -13 Y s 1106 1278 m -13 Y s 1128 1278 m -13 Y s 1150 1278 m -13 Y s 1173 1292 m -27 Y s 1195 1278 m -13 Y s 1217 1278 m -13 Y s
 1239 1278 m -13 Y s 1262 1278 m -13 Y s 1284 1292 m -27 Y s
 gsave  157 1227
 t 0 r 0 0 m /Helvetica-Bold findfont 40.9897 sf 0 0 m (0) show  gr 
 gsave  253 1227
 t 0 r 0 0 m /Helvetica-Bold findfont 40.9897 sf 0 0 m (0.1) show  gr 
 gsave  362 1227
 t 0 r 0 0 m /Helvetica-Bold findfont 40.9897 sf 0 0 m (0.2) show  gr 
 gsave  474 1227
 t 0 r 0 0 m /Helvetica-Bold findfont 40.9897 sf 0 0 m (0.3) show  gr 
 gsave  585 1227
 t 0 r 0 0 m /Helvetica-Bold findfont 40.9897 sf 0 0 m (0.4) show  gr 
 gsave  697 1227
 t 0 r 0 0 m /Helvetica-Bold findfont 40.9897 sf 0 0 m (0.5) show  gr 
 gsave  806 1227
 t 0 r 0 0 m /Helvetica-Bold findfont 40.9897 sf 0 0 m (0.6) show  gr 
 gsave  918 1227
 t 0 r 0 0 m /Helvetica-Bold findfont 40.9897 sf 0 0 m (0.7) show  gr 
 gsave  1029 1227
 t 0 r 0 0 m /Helvetica-Bold findfont 40.9897 sf 0 0 m (0.8) show  gr 
 gsave  1141 1227
 t 0 r 0 0 m /Helvetica-Bold findfont 40.9897 sf 0 0 m (0.9) show  gr 
 gsave  1273 1227
 t 0 r 0 0 m /Helvetica-Bold findfont 40.9897 sf 0 0 m (1) show  gr  169 1265 m 871 Y s
 gsave  98 2076
 t 90 r 0 0 m /Helvetica-Bold findfont 27.3265 sf 0 0 m (after) show  gr 
 gsave  84 2045
 t 90 r 0 0 m /Helvetica-Bold findfont 40.9897 sf 0 0 m (Q) show  gr  202 1265 m -33 X s 185 1283 m -16 X s 185 1300 m -16 X s 185 1318 m -16 X s 185 1335 m -16 X s 202 1352 m -33 X s 185 1370 m -16 X s 185 1387 m -16 X s 185 1405 m -16 X s 185 1422
 m -16 X s 202 1440 m -33 X s 185 1457 m -16 X s 185 1474 m -16 X s 185 1492 m -16 X s 185 1509 m -16 X s 202 1527 m -33 X s 185 1544 m -16 X s 185 1561 m -16 X s 185 1579 m -16 X s 185 1596 m -16 X s 202 1614 m -33 X s 185 1631 m -16 X s 185 1649 m
 -16 X s 185 1666 m -16 X s 185 1683 m -16 X s 202 1701 m -33 X s 185 1718 m -16 X s 185 1736 m -16 X s 185 1753 m -16 X s 185 1770 m -16 X s 202 1788 m -33 X s 185 1805 m -16 X s 185 1823 m -16 X s 185 1840 m -16 X s 185 1858 m -16 X s 202 1875 m
 -33 X s 185 1892 m -16 X s 185 1910 m -16 X s 185 1927 m -16 X s 185 1945 m -16 X s 202 1962 m -33 X s 185 1979 m -16 X s 185 1997 m -16 X s 185 2014 m -16 X s 185 2032 m -16 X s 202 2049 m -33 X s 185 2067 m -16 X s 185 2084 m -16 X s 185 2101 m
 -16 X s 185 2119 m -16 X s 202 2136 m -33 X s
 gsave  137 1255
 t 0 r 0 0 m /Helvetica-Bold findfont 40.9897 sf 0 0 m (0) show  gr 
 gsave  107 1343
 t 0 r 0 0 m /Helvetica-Bold findfont 40.9897 sf 0 0 m (0.1) show  gr 
 gsave  102 1430
 t 0 r 0 0 m /Helvetica-Bold findfont 40.9897 sf 0 0 m (0.2) show  gr 
 gsave  102 1516
 t 0 r 0 0 m /Helvetica-Bold findfont 40.9897 sf 0 0 m (0.3) show  gr 
 gsave  102 1603
 t 0 r 0 0 m /Helvetica-Bold findfont 40.9897 sf 0 0 m (0.4) show  gr 
 gsave  102 1689
 t 0 r 0 0 m /Helvetica-Bold findfont 40.9897 sf 0 0 m (0.5) show  gr 
 gsave  102 1778
 t 0 r 0 0 m /Helvetica-Bold findfont 40.9897 sf 0 0 m (0.6) show  gr 
 gsave  102 1865
 t 0 r 0 0 m /Helvetica-Bold findfont 40.9897 sf 0 0 m (0.7) show  gr 
 gsave  102 1951
 t 0 r 0 0 m /Helvetica-Bold findfont 40.9897 sf 0 0 m (0.8) show  gr 
 gsave  102 2038
 t 0 r 0 0 m /Helvetica-Bold findfont 40.9897 sf 0 0 m (0.9) show  gr 
 gsave  141 2127
 t 0 r 0 0 m /Helvetica-Bold findfont 40.9897 sf 0 0 m (1) show  gr  0.95 0.95 0.95 c 934 55 43 2185 bf black 50 2185 m -4 Y 932 X 52 Y -5 X -48 Y f 43 2185 m 55 Y 934 X -55 Y -934 X cl s 1 1 1 c black
 gsave  118 2197
 t 0 r 0 0 m /Helvetica-Bold findfont 43.2669 sf 0 0 m (Q for more energetic \(harder\) photons) show  gr  0.95 0.95 0.95 c 1394 1088 1482 1157 bf 1 1 1 c 1482 1157 m 2 2 d 1084 Y 1390 X 2 2 d -1394 X -1088 Y f 0.665 0.665 0.665 c 1482 1157 m 2 2 d
 1390 X 1084 Y 2 2 d -1088 Y -1394 X f black 0.95 0.95 0.95 c 1116 871 1621 1265 bf 1 1 1 c 1621 1265 m 1 1 d 869 Y 1114 X 1 1 d -1116 X -871 Y f 0.665 0.665 0.665 c 1621 1265 m 1 1 d 1114 X 869 Y 1 1 d -871 Y -1116 X f black 1116 871 1621 1265 bl
 0.95 0.95 0.95 c 1116 871 1621 1265 bf 1 1 1 c 1621 1265 m 1 1 d 869 Y 1114 X 1 1 d -1116 X -871 Y f 0.665 0.665 0.665 c 1621 1265 m 1 1 d 1114 X 869 Y 1 1 d -871 Y -1116 X f black 1116 871 1621 1265 bl 1 0 0 c 1 1 1 c black 1 0 0 c 1622 2079 m 10 X
 -70 Y 11 X -47 Y 12 X -30 Y 11 X -23 Y 11 X -18 Y 11 X -15 Y 11 X -14 Y 11 X -11 Y 12 X -10 Y 11 X -9 Y 11 X -8 Y 11 X -8 Y 11 X -8 Y 11 X -6 Y 11 X -6 Y 12 X -7 Y 11 X -5 Y 11 X -5 Y 11 X -5 Y 11 X -5 Y 11 X -5 Y 12 X -4 Y 11 X -5 Y 11 X -4 Y 11 X
 -4 Y 11 X -3 Y 11 X -4 Y 11 X -4 Y 12 X -4 Y 11 X -3 Y 11 X -4 Y 11 X -3 Y 11 X -3 Y 11 X -3 Y 12 X -4 Y 11 X -3 Y 11 X -3 Y 11 X -3 Y 11 X -3 Y 11 X -3 Y 12 X -2 Y 11 X -4 Y 11 X -3 Y 11 X -3 Y 11 X -2 Y 11 X -4 Y 11 X -2 Y 12 X -3 Y 11 X -2 Y 11 X
 -4 Y 11 X -3 Y 11 X -3 Y 11 X -2 Y 12 X -3 Y 11 X -2 Y 11 X -4 Y 11 X -3 Y 11 X -2 Y 11 X -4 Y 11 X -4 Y 12 X -1 Y 11 X -3 Y 11 X -4 Y 11 X -2 Y 11 X -3 Y 11 X -4 Y 12 X -3 Y 11 X -4 Y 11 X -3 Y 11 X -2 Y 11 X -4 Y 11 X -4 Y 12 X -4 Y 11 X -3 Y 11 X
 -5 Y 11 X -4 Y 11 X -3 Y 11 X -3 Y 11 X -6 Y 12 X -4 Y 11 X -4 Y 11 X -6 Y 11 X -6 Y 11 X -4 Y 11 X -3 Y 12 X -8 Y 11 X -6 Y 11 X -8 Y 11 X -7 Y 11 X -7 Y 11 X -9 Y 11 X -10 Y 12 X -10 Y 11 X -13 Y 11 X -16 Y 11 X -17 Y 11 X -21 Y 11 X -31 Y 12 X
 -55 Y 10 X s black 1621 1265 m 1116 X s 1621 1292 m -27 Y s 1643 1278 m -13 Y s 1666 1278 m -13 Y s 1688 1278 m -13 Y s 1710 1278 m -13 Y s 1733 1292 m -27 Y s 1755 1278 m -13 Y s 1777 1278 m -13 Y s 1800 1278 m -13 Y s 1822 1278 m -13 Y s 1844 1292
 m -27 Y s 1867 1278 m -13 Y s 1889 1278 m -13 Y s 1911 1278 m -13 Y s 1933 1278 m -13 Y s 1956 1292 m -27 Y s 1978 1278 m -13 Y s 2000 1278 m -13 Y s 2023 1278 m -13 Y s 2045 1278 m -13 Y s 2067 1292 m -27 Y s 2090 1278 m -13 Y s 2112 1278 m -13 Y s
 2134 1278 m -13 Y s 2157 1278 m -13 Y s 2179 1292 m -27 Y s 2201 1278 m -13 Y s 2224 1278 m -13 Y s 2246 1278 m -13 Y s 2268 1278 m -13 Y s 2290 1292 m -27 Y s 2313 1278 m -13 Y s 2335 1278 m -13 Y s 2357 1278 m -13 Y s 2380 1278 m -13 Y s 2402 1292
 m -27 Y s 2424 1278 m -13 Y s 2447 1278 m -13 Y s 2469 1278 m -13 Y s 2491 1278 m -13 Y s 2514 1292 m -27 Y s 2536 1278 m -13 Y s 2558 1278 m -13 Y s 2581 1278 m -13 Y s 2603 1278 m -13 Y s 2625 1292 m -27 Y s 2647 1278 m -13 Y s 2670 1278 m -13 Y s
 2692 1278 m -13 Y s 2714 1278 m -13 Y s 2737 1292 m -27 Y s
 gsave  1610 1227
 t 0 r 0 0 m /Helvetica-Bold findfont 40.9897 sf 0 0 m (0) show  gr 
 gsave  1705 1227
 t 0 r 0 0 m /Helvetica-Bold findfont 40.9897 sf 0 0 m (0.1) show  gr 
 gsave  1815 1227
 t 0 r 0 0 m /Helvetica-Bold findfont 40.9897 sf 0 0 m (0.2) show  gr 
 gsave  1926 1227
 t 0 r 0 0 m /Helvetica-Bold findfont 40.9897 sf 0 0 m (0.3) show  gr 
 gsave  2038 1227
 t 0 r 0 0 m /Helvetica-Bold findfont 40.9897 sf 0 0 m (0.4) show  gr 
 gsave  2149 1227
 t 0 r 0 0 m /Helvetica-Bold findfont 40.9897 sf 0 0 m (0.5) show  gr 
 gsave  2259 1227
 t 0 r 0 0 m /Helvetica-Bold findfont 40.9897 sf 0 0 m (0.6) show  gr 
 gsave  2370 1227
 t 0 r 0 0 m /Helvetica-Bold findfont 40.9897 sf 0 0 m (0.7) show  gr 
 gsave  2482 1227
 t 0 r 0 0 m /Helvetica-Bold findfont 40.9897 sf 0 0 m (0.8) show  gr 
 gsave  2593 1227
 t 0 r 0 0 m /Helvetica-Bold findfont 40.9897 sf 0 0 m (0.9) show  gr 
 gsave  2725 1227
 t 0 r 0 0 m /Helvetica-Bold findfont 40.9897 sf 0 0 m (1) show  gr  1621 1265 m 871 Y s 1638 1281 m -17 X s 1638 1301 m -17 X s 1638 1317 m -17 X s 1638 1331 m -17 X s 1638 1343 m -17 X s 1638 1354 m -17 X s 1655 1363 m -34 X s
 /xs 0 def (10) /Helvetica-Bold 40.9897 stwn  gsave  1596 1346
 t 0 r  xs neg 0 t 0 0 m /Helvetica-Bold findfont 40.9897 sf 0 0 m (10) show  gr 
 gsave  1596 1376
 t 0 r 0 0 m /Helvetica-Bold findfont 25.0493 sf 0 0 m (3) show  gr  1638 1426 m -17 X s 1638 1463 m -17 X s 1638 1489 m -17 X s 1638 1509 m -17 X s 1638 1525 m -17 X s 1638 1539 m -17 X s 1638 1551 m -17 X s 1638 1562 m -17 X s 1655 1571 m -34 X s
 /xs 0 def (10) /Helvetica-Bold 40.9897 stwn  gsave  1596 1554
 t 0 r  xs neg 0 t 0 0 m /Helvetica-Bold findfont 40.9897 sf 0 0 m (10) show  gr 
 gsave  1596 1584
 t 0 r 0 0 m /Helvetica-Bold findfont 25.0493 sf 0 0 m (4) show  gr  1638 1634 m -17 X s 1638 1670 m -17 X s 1638 1696 m -17 X s 1638 1716 m -17 X s 1638 1733 m -17 X s 1638 1747 m -17 X s 1638 1759 m -17 X s 1638 1770 m -17 X s 1655 1779 m -34 X s
 /xs 0 def (10) /Helvetica-Bold 40.9897 stwn  gsave  1596 1762
 t 0 r  xs neg 0 t 0 0 m /Helvetica-Bold findfont 40.9897 sf 0 0 m (10) show  gr 
 gsave  1596 1792
 t 0 r 0 0 m /Helvetica-Bold findfont 25.0493 sf 0 0 m (5) show  gr  1638 1842 m -17 X s 1638 1878 m -17 X s 1638 1904 m -17 X s 1638 1924 m -17 X s 1638 1941 m -17 X s 1638 1955 m -17 X s 1638 1967 m -17 X s 1638 1977 m -17 X s 1655 1987 m -34 X s
 /xs 0 def (10) /Helvetica-Bold 40.9897 stwn  gsave  1596 1970
 t 0 r  xs neg 0 t 0 0 m /Helvetica-Bold findfont 40.9897 sf 0 0 m (10) show  gr 
 gsave  1596 2000
 t 0 r 0 0 m /Helvetica-Bold findfont 25.0493 sf 0 0 m (6) show  gr  1638 2049 m -17 X s 1638 2086 m -17 X s 1638 2112 m -17 X s 1638 2132 m -17 X s 0.95 0.95 0.95 c 976 55 1496 2185 bf black 1502 2185 m -4 Y 974 X 52 Y -4 X -48 Y f 1496 2185 m 55 Y
 976 X -55 Y -976 X cl s 1 1 1 c black
 gsave  1516 2199
 t 0 r 0 0 m /Helvetica-Bold findfont 36.4353 sf 0 0 m (Q for more energetic photon: before second emission) show  gr  0.95 0.95 0.95 c 1395 1088 29 23 bf 1 1 1 c 29 23 m 2 2 d 1084 Y 1391 X 2 2 d -1395 X -1088 Y f 0.665 0.665 0.665 c 29 23 m 2 2 d
 1391 X 1084 Y 2 2 d -1088 Y -1395 X f black 0.95 0.95 0.95 c 1115 870 169 132 bf 1 1 1 c 169 132 m 1 1 d 868 Y 1113 X 1 1 d -1115 X -870 Y f 0.665 0.665 0.665 c 169 132 m 1 1 d 1113 X 868 Y 1 1 d -870 Y -1115 X f black 1115 870 169 132 bl 0.95 0.95
 0.95 c 1115 870 169 132 bf 1 1 1 c 169 132 m 1 1 d 868 Y 1113 X 1 1 d -1115 X -870 Y f 0.665 0.665 0.665 c 169 132 m 1 1 d 1113 X 868 Y 1 1 d -870 Y -1115 X f black 1115 870 169 132 bl 0 1 0 c 1 1 1 c black 0 1 0 c 170 945 m 10 X -70 Y 11 X -47 Y 11
 X -30 Y 11 X -23 Y 11 X -18 Y 11 X -15 Y 12 X -14 Y 11 X -11 Y 11 X -10 Y 11 X -9 Y 11 X -8 Y 11 X -8 Y 12 X -8 Y 11 X -6 Y 11 X -6 Y 11 X -7 Y 11 X -5 Y 11 X -5 Y 11 X -5 Y 12 X -5 Y 11 X -4 Y 11 X -5 Y 11 X -5 Y 11 X -4 Y 11 X -4 Y 12 X -3 Y 11 X
 -4 Y 11 X -4 Y 11 X -4 Y 11 X -3 Y 11 X -3 Y 11 X -4 Y 12 X -3 Y 11 X -3 Y 11 X -4 Y 11 X -3 Y 11 X -3 Y 11 X -3 Y 12 X -3 Y 11 X -3 Y 11 X -2 Y 11 X -4 Y 11 X -3 Y 11 X -3 Y 12 X -2 Y 11 X -4 Y 11 X -2 Y 11 X -3 Y 11 X -2 Y 11 X -3 Y 11 X -4 Y 12 X
 -3 Y 11 X -2 Y 11 X -3 Y 11 X -2 Y 11 X -4 Y 11 X -3 Y 12 X -2 Y 11 X -4 Y 11 X -4 Y 22 X -4 Y 11 X -4 Y 11 X -2 Y 12 X -3 Y 11 X -4 Y 11 X -3 Y 11 X -4 Y 11 X -3 Y 11 X -2 Y 12 X -4 Y 11 X -4 Y 11 X -4 Y 11 X -3 Y 11 X -5 Y 11 X -4 Y 12 X -3 Y 11 X
 -3 Y 11 X -6 Y 11 X -4 Y 11 X -4 Y 11 X -6 Y 11 X -6 Y 12 X -4 Y 11 X -3 Y 11 X -8 Y 11 X -6 Y 11 X -8 Y 11 X -7 Y 12 X -7 Y 11 X -9 Y 11 X -10 Y 11 X -11 Y 11 X -12 Y 11 X -16 Y 11 X -17 Y 12 X -21 Y 11 X -30 Y 11 X -56 Y 10 X s black 169 132 m
 1115 X s 169 158 m -26 Y s 191 145 m -13 Y s 213 145 m -13 Y s 235 145 m -13 Y s 258 145 m -13 Y s 280 158 m -26 Y s 302 145 m -13 Y s 325 145 m -13 Y s 347 145 m -13 Y s 369 145 m -13 Y s 392 158 m -26 Y s 414 145 m -13 Y s 436 145 m -13 Y s 459
 145 m -13 Y s 481 145 m -13 Y s 503 158 m -26 Y s 525 145 m -13 Y s 548 145 m -13 Y s 570 145 m -13 Y s 592 145 m -13 Y s 615 158 m -26 Y s 637 145 m -13 Y s 659 145 m -13 Y s 682 145 m -13 Y s 704 145 m -13 Y s 726 158 m -26 Y s 749 145 m -13 Y s
 771 145 m -13 Y s 793 145 m -13 Y s 816 145 m -13 Y s 838 158 m -26 Y s 860 145 m -13 Y s 882 145 m -13 Y s 905 145 m -13 Y s 927 145 m -13 Y s 949 158 m -26 Y s 972 145 m -13 Y s 994 145 m -13 Y s 1016 145 m -13 Y s 1039 145 m -13 Y s 1061 158 m
 -26 Y s 1083 145 m -13 Y s 1106 145 m -13 Y s 1128 145 m -13 Y s 1150 145 m -13 Y s 1173 158 m -26 Y s 1195 145 m -13 Y s 1217 145 m -13 Y s 1239 145 m -13 Y s 1262 145 m -13 Y s 1284 158 m -26 Y s
 gsave  157 93
 t 0 r 0 0 m /Helvetica-Bold findfont 40.9897 sf 0 0 m (0) show  gr 
 gsave  253 93
 t 0 r 0 0 m /Helvetica-Bold findfont 40.9897 sf 0 0 m (0.1) show  gr 
 gsave  362 93
 t 0 r 0 0 m /Helvetica-Bold findfont 40.9897 sf 0 0 m (0.2) show  gr 
 gsave  474 93
 t 0 r 0 0 m /Helvetica-Bold findfont 40.9897 sf 0 0 m (0.3) show  gr 
 gsave  585 93
 t 0 r 0 0 m /Helvetica-Bold findfont 40.9897 sf 0 0 m (0.4) show  gr 
 gsave  697 93
 t 0 r 0 0 m /Helvetica-Bold findfont 40.9897 sf 0 0 m (0.5) show  gr 
 gsave  806 93
 t 0 r 0 0 m /Helvetica-Bold findfont 40.9897 sf 0 0 m (0.6) show  gr 
 gsave  918 93
 t 0 r 0 0 m /Helvetica-Bold findfont 40.9897 sf 0 0 m (0.7) show  gr 
 gsave  1029 93
 t 0 r 0 0 m /Helvetica-Bold findfont 40.9897 sf 0 0 m (0.8) show  gr 
 gsave  1141 93
 t 0 r 0 0 m /Helvetica-Bold findfont 40.9897 sf 0 0 m (0.9) show  gr 
 gsave  1273 93
 t 0 r 0 0 m /Helvetica-Bold findfont 40.9897 sf 0 0 m (1) show  gr  169 132 m 870 Y s 185 147 m -16 X s 185 167 m -16 X s 185 183 m -16 X s 185 197 m -16 X s 185 209 m -16 X s 185 220 m -16 X s 202 229 m -33 X s
 /xs 0 def (10) /Helvetica-Bold 40.9897 stwn  gsave  143 212
 t 0 r  xs neg 0 t 0 0 m /Helvetica-Bold findfont 40.9897 sf 0 0 m (10) show  gr 
 gsave  144 242
 t 0 r 0 0 m /Helvetica-Bold findfont 25.0493 sf 0 0 m (3) show  gr  185 292 m -16 X s 185 329 m -16 X s 185 355 m -16 X s 185 375 m -16 X s 185 391 m -16 X s 185 405 m -16 X s 185 417 m -16 X s 185 428 m -16 X s 202 437 m -33 X s
 /xs 0 def (10) /Helvetica-Bold 40.9897 stwn  gsave  143 420
 t 0 r  xs neg 0 t 0 0 m /Helvetica-Bold findfont 40.9897 sf 0 0 m (10) show  gr 
 gsave  144 450
 t 0 r 0 0 m /Helvetica-Bold findfont 25.0493 sf 0 0 m (4) show  gr  185 500 m -16 X s 185 536 m -16 X s 185 562 m -16 X s 185 583 m -16 X s 185 599 m -16 X s 185 613 m -16 X s 185 625 m -16 X s 185 636 m -16 X s 202 645 m -33 X s
 /xs 0 def (10) /Helvetica-Bold 40.9897 stwn  gsave  143 628
 t 0 r  xs neg 0 t 0 0 m /Helvetica-Bold findfont 40.9897 sf 0 0 m (10) show  gr 
 gsave  144 658
 t 0 r 0 0 m /Helvetica-Bold findfont 25.0493 sf 0 0 m (5) show  gr  185 708 m -16 X s 185 744 m -16 X s 185 770 m -16 X s 185 790 m -16 X s 185 807 m -16 X s 185 821 m -16 X s 185 833 m -16 X s 185 843 m -16 X s 202 853 m -33 X s
 /xs 0 def (10) /Helvetica-Bold 40.9897 stwn  gsave  143 836
 t 0 r  xs neg 0 t 0 0 m /Helvetica-Bold findfont 40.9897 sf 0 0 m (10) show  gr 
 gsave  144 866
 t 0 r 0 0 m /Helvetica-Bold findfont 25.0493 sf 0 0 m (6) show  gr  185 916 m -16 X s 185 952 m -16 X s 185 978 m -16 X s 185 998 m -16 X s 0.95 0.95 0.95 c 976 55 43 1051 bf black 50 1051 m -4 Y 974 X 52 Y -5 X -48 Y f 43 1051 m 55 Y 976 X -55 Y
 -976 X cl s 1 1 1 c black
 gsave  52 1066
 t 0 r 0 0 m /Helvetica-Bold findfont 38.7125 sf 0 0 m (Q for more energetic photon: after second emission) show  gr  0.95 0.95 0.95 c 1394 1088 1482 23 bf 1 1 1 c 1482 23 m 2 2 d 1084 Y 1390 X 2 2 d -1394 X -1088 Y f 0.665 0.665 0.665 c 1482 23 m 2
 2 d 1390 X 1084 Y 2 2 d -1088 Y -1394 X f black 0.95 0.95 0.95 c 1116 870 1621 132 bf 1 1 1 c 1621 132 m 1 1 d 868 Y 1114 X 1 1 d -1116 X -870 Y f 0.665 0.665 0.665 c 1621 132 m 1 1 d 1114 X 868 Y 1 1 d -870 Y -1116 X f black 1116 870 1621 132 bl
 0.95 0.95 0.95 c 1116 870 1621 132 bf 1 1 1 c 1621 132 m 1 1 d 868 Y 1114 X 1 1 d -1116 X -870 Y f 0.665 0.665 0.665 c 1621 132 m 1 1 d 1114 X 868 Y 1 1 d -870 Y -1116 X f black 1116 870 1621 132 bl 1 0 0 c 1 1 1 c black 1 0 0 c 1622 945 m 10 X -70
 Y 11 X -47 Y 12 X -30 Y 11 X -23 Y 11 X -18 Y 11 X -15 Y 11 X -13 Y 11 X -12 Y 12 X -10 Y 11 X -9 Y 11 X -8 Y 11 X -8 Y 11 X -8 Y 11 X -6 Y 11 X -6 Y 12 X -7 Y 11 X -5 Y 11 X -5 Y 11 X -5 Y 11 X -5 Y 11 X -4 Y 12 X -5 Y 11 X -4 Y 11 X -5 Y 11 X -4 Y
 11 X -3 Y 11 X -4 Y 11 X -4 Y 12 X -4 Y 11 X -3 Y 11 X -3 Y 11 X -4 Y 11 X -3 Y 11 X -3 Y 12 X -4 Y 11 X -3 Y 11 X -3 Y 11 X -3 Y 11 X -3 Y 11 X -3 Y 12 X -2 Y 11 X -4 Y 11 X -3 Y 11 X -3 Y 11 X -2 Y 11 X -4 Y 11 X -2 Y 12 X -3 Y 11 X -2 Y 11 X -3 Y
 11 X -4 Y 11 X -3 Y 11 X -2 Y 12 X -3 Y 11 X -2 Y 11 X -4 Y 11 X -3 Y 11 X -2 Y 11 X -4 Y 11 X -4 Y 23 X -4 Y 11 X -3 Y 11 X -3 Y 11 X -3 Y 11 X -4 Y 12 X -2 Y 11 X -4 Y 11 X -4 Y 11 X -2 Y 11 X -4 Y 11 X -4 Y 12 X -4 Y 11 X -3 Y 11 X -5 Y 11 X -4 Y
 11 X -3 Y 11 X -3 Y 11 X -6 Y 12 X -4 Y 11 X -4 Y 11 X -6 Y 11 X -5 Y 11 X -5 Y 11 X -3 Y 12 X -8 Y 11 X -6 Y 11 X -8 Y 11 X -7 Y 11 X -7 Y 11 X -9 Y 11 X -10 Y 12 X -10 Y 11 X -13 Y 11 X -16 Y 11 X -16 Y 11 X -21 Y 11 X -32 Y 12 X -55 Y 10 X s
 black 1621 132 m 1116 X s 1621 158 m -26 Y s 1643 145 m -13 Y s 1666 145 m -13 Y s 1688 145 m -13 Y s 1710 145 m -13 Y s 1733 158 m -26 Y s 1755 145 m -13 Y s 1777 145 m -13 Y s 1800 145 m -13 Y s 1822 145 m -13 Y s 1844 158 m -26 Y s 1867 145 m -13
 Y s 1889 145 m -13 Y s 1911 145 m -13 Y s 1933 145 m -13 Y s 1956 158 m -26 Y s 1978 145 m -13 Y s 2000 145 m -13 Y s 2023 145 m -13 Y s 2045 145 m -13 Y s 2067 158 m -26 Y s 2090 145 m -13 Y s 2112 145 m -13 Y s 2134 145 m -13 Y s 2157 145 m -13 Y
 s 2179 158 m -26 Y s 2201 145 m -13 Y s 2224 145 m -13 Y s 2246 145 m -13 Y s 2268 145 m -13 Y s 2290 158 m -26 Y s 2313 145 m -13 Y s 2335 145 m -13 Y s 2357 145 m -13 Y s 2380 145 m -13 Y s 2402 158 m -26 Y s 2424 145 m -13 Y s 2447 145 m -13 Y s
 2469 145 m -13 Y s 2491 145 m -13 Y s 2514 158 m -26 Y s 2536 145 m -13 Y s 2558 145 m -13 Y s 2581 145 m -13 Y s 2603 145 m -13 Y s 2625 158 m -26 Y s 2647 145 m -13 Y s 2670 145 m -13 Y s 2692 145 m -13 Y s 2714 145 m -13 Y s 2737 158 m -26 Y s
 gsave  1610 93
 t 0 r 0 0 m /Helvetica-Bold findfont 40.9897 sf 0 0 m (0) show  gr 
 gsave  1705 93
 t 0 r 0 0 m /Helvetica-Bold findfont 40.9897 sf 0 0 m (0.1) show  gr 
 gsave  1815 93
 t 0 r 0 0 m /Helvetica-Bold findfont 40.9897 sf 0 0 m (0.2) show  gr 
 gsave  1926 93
 t 0 r 0 0 m /Helvetica-Bold findfont 40.9897 sf 0 0 m (0.3) show  gr 
 gsave  2038 93
 t 0 r 0 0 m /Helvetica-Bold findfont 40.9897 sf 0 0 m (0.4) show  gr 
 gsave  2149 93
 t 0 r 0 0 m /Helvetica-Bold findfont 40.9897 sf 0 0 m (0.5) show  gr 
 gsave  2259 93
 t 0 r 0 0 m /Helvetica-Bold findfont 40.9897 sf 0 0 m (0.6) show  gr 
 gsave  2370 93
 t 0 r 0 0 m /Helvetica-Bold findfont 40.9897 sf 0 0 m (0.7) show  gr 
 gsave  2482 93
 t 0 r 0 0 m /Helvetica-Bold findfont 40.9897 sf 0 0 m (0.8) show  gr 
 gsave  2593 93
 t 0 r 0 0 m /Helvetica-Bold findfont 40.9897 sf 0 0 m (0.9) show  gr 
 gsave  2725 93
 t 0 r 0 0 m /Helvetica-Bold findfont 40.9897 sf 0 0 m (1) show  gr  1621 132 m 870 Y s 1638 147 m -17 X s 1638 167 m -17 X s 1638 183 m -17 X s 1638 197 m -17 X s 1638 209 m -17 X s 1638 220 m -17 X s 1655 230 m -34 X s
 /xs 0 def (10) /Helvetica-Bold 40.9897 stwn  gsave  1596 212
 t 0 r  xs neg 0 t 0 0 m /Helvetica-Bold findfont 40.9897 sf 0 0 m (10) show  gr 
 gsave  1596 243
 t 0 r 0 0 m /Helvetica-Bold findfont 25.0493 sf 0 0 m (3) show  gr  1638 292 m -17 X s 1638 329 m -17 X s 1638 355 m -17 X s 1638 375 m -17 X s 1638 391 m -17 X s 1638 405 m -17 X s 1638 417 m -17 X s 1638 428 m -17 X s 1655 437 m -34 X s
 /xs 0 def (10) /Helvetica-Bold 40.9897 stwn  gsave  1596 420
 t 0 r  xs neg 0 t 0 0 m /Helvetica-Bold findfont 40.9897 sf 0 0 m (10) show  gr 
 gsave  1596 450
 t 0 r 0 0 m /Helvetica-Bold findfont 25.0493 sf 0 0 m (4) show  gr  1638 500 m -17 X s 1638 537 m -17 X s 1638 562 m -17 X s 1638 583 m -17 X s 1638 599 m -17 X s 1638 613 m -17 X s 1638 625 m -17 X s 1638 636 m -17 X s 1655 645 m -34 X s
 /xs 0 def (10) /Helvetica-Bold 40.9897 stwn  gsave  1596 628
 t 0 r  xs neg 0 t 0 0 m /Helvetica-Bold findfont 40.9897 sf 0 0 m (10) show  gr 
 gsave  1596 658
 t 0 r 0 0 m /Helvetica-Bold findfont 25.0493 sf 0 0 m (5) show  gr  1638 708 m -17 X s 1638 744 m -17 X s 1638 770 m -17 X s 1638 790 m -17 X s 1638 807 m -17 X s 1638 821 m -17 X s 1638 833 m -17 X s 1638 843 m -17 X s 1655 853 m -34 X s
 /xs 0 def (10) /Helvetica-Bold 40.9897 stwn  gsave  1596 836
 t 0 r  xs neg 0 t 0 0 m /Helvetica-Bold findfont 40.9897 sf 0 0 m (10) show  gr 
 gsave  1596 866
 t 0 r 0 0 m /Helvetica-Bold findfont 25.0493 sf 0 0 m (6) show  gr  1638 916 m -17 X s 1638 952 m -17 X s 1638 978 m -17 X s 1638 998 m -17 X s 0 1 0 c 1 1 1 c black 0 1 0 c 1622 945 m 10 X -70 Y 11 X -47 Y 12 X -30 Y 11 X -23 Y 11 X -18 Y 11 X -15
 Y 11 X -14 Y 11 X -11 Y 12 X -10 Y 11 X -9 Y 11 X -8 Y 11 X -8 Y 11 X -8 Y 11 X -6 Y 11 X -6 Y 12 X -7 Y 11 X -5 Y 11 X -5 Y 11 X -5 Y 11 X -5 Y 11 X -4 Y 12 X -5 Y 11 X -4 Y 11 X -5 Y 11 X -4 Y 11 X -3 Y 11 X -4 Y 11 X -4 Y 12 X -4 Y 11 X -3 Y 11 X
 -3 Y 11 X -4 Y 11 X -3 Y 11 X -3 Y 12 X -4 Y 11 X -3 Y 11 X -3 Y 11 X -3 Y 11 X -3 Y 11 X -3 Y 12 X -2 Y 11 X -4 Y 11 X -3 Y 11 X -3 Y 11 X -2 Y 11 X -4 Y 11 X -2 Y 12 X -3 Y 11 X -2 Y 11 X -3 Y 11 X -4 Y 11 X -3 Y 11 X -2 Y 12 X -3 Y 11 X -2 Y 11 X
 -4 Y 11 X -3 Y 11 X -2 Y 11 X -4 Y 11 X -4 Y 23 X -4 Y 11 X -4 Y 11 X -2 Y 11 X -3 Y 11 X -4 Y 12 X -2 Y 11 X -4 Y 11 X -4 Y 11 X -2 Y 11 X -4 Y 11 X -4 Y 12 X -4 Y 11 X -3 Y 11 X -5 Y 11 X -4 Y 11 X -3 Y 11 X -2 Y 11 X -7 Y 12 X -4 Y 11 X -4 Y 11 X
 -6 Y 11 X -5 Y 11 X -5 Y 11 X -3 Y 12 X -8 Y 11 X -6 Y 11 X -7 Y 11 X -8 Y 11 X -7 Y 11 X -9 Y 11 X -9 Y 12 X -12 Y 11 X -12 Y 11 X -16 Y 11 X -17 Y 11 X -21 Y 11 X -30 Y 12 X -56 Y 10 X s 0.95 0.95 0.95 c 45 46 1494 1061 bf 1500 1061 m -5 Y 44 X 44
 Y -5 X -39 Y f 1494 1061 m 46 Y 45 X -46 Y -45 X cl s
 gsave  1482 1081
 t 0 r 0 0 m /Helvetica-Bold findfont 4.55441 sf 0 0 m (Q for more energetic photon: before second emission) show  gr  gr 
showpage
 gr 
%%Trailer
%%Pages:  1
 gr  gr  gr 
%%EOF
